rtl/LFSR/simulation/qsim/LFSR_Controller.msim.vcd
$comment
	File created using the following command:
		vcd file LFSR_Controller.msim.vcd -direction
$end
$date
	Wed Jun 12 11:08:47 2024
$end
$version
	ModelSim Version 10.5b
$end
$timescale
	1ps
$end

$scope module LFSR_Controller_vlg_vec_tst $end
$var reg 1 ! clk $end
$var reg 1 " counter_read $end
$var reg 1 # reset $end
$var wire 1 $ available $end
$var wire 1 % counter [3] $end
$var wire 1 & counter [2] $end
$var wire 1 ' counter [1] $end
$var wire 1 ( counter [0] $end
$var wire 1 ) counter_finished $end

$scope module i1 $end
$var wire 1 * gnd $end
$var wire 1 + vcc $end
$var wire 1 , unknown $end
$var tri1 1 - devclrn $end
$var tri1 1 . devpor $end
$var tri1 1 / devoe $end
$var wire 1 0 counter[0]~output_o $end
$var wire 1 1 counter[1]~output_o $end
$var wire 1 2 counter[2]~output_o $end
$var wire 1 3 counter[3]~output_o $end
$var wire 1 4 available~output_o $end
$var wire 1 5 counter_finished~output_o $end
$var wire 1 6 clk~input_o $end
$var wire 1 7 reset~input_o $end
$var wire 1 8 counter_read~input_o $end
$var wire 1 9 Equal3~0_combout $end
$var wire 1 : can_finish~0_combout $end
$var wire 1 ; can_finish~q $end
$var wire 1 < next_state[4]~3_combout $end
$var wire 1 = next_state[1]~6_combout $end
$var wire 1 > Equal0~1_combout $end
$var wire 1 ? next_state[0]~5_combout $end
$var wire 1 @ next_state[3]~0_combout $end
$var wire 1 A next_state[3]~2_combout $end
$var wire 1 B next_state[3]~1_combout $end
$var wire 1 C next_state[4]~4_combout $end
$var wire 1 D Equal0~0_combout $end
$var wire 1 E counter~2_combout $end
$var wire 1 F counter[0]~1_combout $end
$var wire 1 G counter[1]~reg0_q $end
$var wire 1 H counter~3_combout $end
$var wire 1 I counter[2]~reg0_q $end
$var wire 1 J counter~4_combout $end
$var wire 1 K counter[3]~reg0_q $end
$var wire 1 L counter~0_combout $end
$var wire 1 M counter[0]~reg0_q $end
$var wire 1 N current_state [4] $end
$var wire 1 O current_state [3] $end
$var wire 1 P current_state [2] $end
$var wire 1 Q current_state [1] $end
$var wire 1 R current_state [0] $end
$upscope $end
$upscope $end
$enddefinitions $end
#0
$dumpvars
0!
1"
0#
0$
0(
0'
0&
0%
0)
0*
1+
x,
1-
1.
1/
00
01
02
03
04
05
06
07
18
09
0:
0;
0<
0=
1>
1?
0@
0A
0B
0C
1D
1E
1F
0G
1H
0I
1J
0K
1L
0M
0R
0Q
0P
0O
0N
$end
#2500
1!
16
1R
1M
1K
1I
1G
11
12
13
10
0F
1@
0>
19
1(
1%
1&
1'
0L
0?
1A
1=
#5000
0!
06
#7500
1!
16
0R
1Q
1O
14
1B
0@
1$
0A
1?
#10000
0!
06
#12500
1!
16
1R
0O
04
1F
0B
1@
0$
1A
0?
#15000
0!
06
#17500
1!
16
0R
0M
1O
14
00
0F
1B
0@
09
0(
1$
1L
0E
1:
0A
1?
#20000
0!
06
#22500
1!
16
1R
1;
0O
04
1F
0B
1@
0$
1A
0?
#25000
0!
06
#27500
1!
16
0R
1M
0G
1O
14
01
10
0F
1B
0@
1(
0'
1$
0H
0L
1E
0A
1?
#30000
0!
06
#32500
1!
16
1R
0O
04
1F
0B
1@
0$
1A
0?
#35000
0!
06
#37500
1!
16
0R
0M
0I
1G
1O
14
11
02
00
0F
1B
0@
0(
0&
1'
1$
1H
0J
1L
0E
0A
1?
#40000
0!
06
#42500
1!
16
1R
0O
04
1F
0B
1@
0$
1A
0?
#45000
0!
06
#47500
1!
16
0R
1M
0K
1I
0G
1O
14
01
12
03
10
0F
1B
0@
1(
0%
1&
0'
1$
0H
1J
1E
0A
1?
#50000
0!
06
#52500
1!
16
1R
0O
04
1F
0B
1@
0$
1A
0?
#55000
0!
06
#57500
1!
16
0R
1K
0I
1G
1O
14
11
02
13
0F
1B
0@
1%
0&
1'
1$
1H
0J
0L
0A
1?
#60000
0!
06
#62500
1!
16
1R
0O
04
1F
0B
1@
0$
1A
0?
#65000
0!
06
#67500
1!
16
0R
0M
0K
1I
1O
14
12
03
00
0F
1B
0@
0(
0%
1&
1$
1J
0E
0A
1?
#70000
0!
06
#72500
1!
16
1R
0O
04
1F
0B
1@
0$
1A
0?
#75000
0!
06
#77500
1!
16
0R
1K
0G
1O
14
01
13
0F
1B
0@
1%
0'
1$
0H
1L
0A
1?
#80000
0!
06
#82500
1!
16
1R
0O
04
1F
0B
1@
0$
1A
0?
#85000
0!
06
#87500
1!
16
0R
1M
0I
1O
14
02
10
0F
1B
0@
1(
0&
1$
0J
0L
1E
0A
1?
#90000
0!
06
#92500
1!
16
1R
0O
04
1F
0B
1@
0$
1A
0?
#95000
0!
06
#97500
1!
16
0R
0M
0K
1G
1O
14
11
03
00
0F
1B
0@
0(
0%
1'
1$
1H
0E
0A
1?
#100000
0!
06
#102500
1!
16
1R
0O
04
1F
0B
1@
0$
1A
0?
#105000
0!
06
#107500
1!
16
0R
1I
0G
1O
14
01
12
0F
1B
0@
1&
0'
1$
0H
1J
0A
1?
#110000
0!
06
#112500
1!
16
1R
0O
04
1F
0B
1@
0$
1A
0?
#115000
0!
06
#117500
1!
16
0R
1K
0I
1O
14
02
13
0F
1B
0@
1%
0&
1$
0J
1L
0A
1?
#120000
0!
06
#122500
1!
16
1R
0O
04
1F
0B
1@
0$
1A
0?
#125000
0!
06
#127500
1!
16
0R
1M
0K
1O
14
03
10
0F
1B
0@
1(
0%
1$
1E
0A
1?
#130000
0!
06
#132500
1!
16
1R
0O
04
1F
0B
1@
0$
1A
0?
#135000
0!
06
#137500
1!
16
0R
1G
1O
14
11
0F
1B
0@
1'
1$
1H
0A
1?
#140000
0!
06
#142500
1!
16
1R
0O
04
1F
0B
1@
0$
1A
0?
#145000
0!
06
#147500
1!
16
0R
1I
1O
14
12
0F
1B
0@
1&
1$
1J
0A
1?
#150000
0!
06
#152500
1!
16
1R
0O
04
1F
0B
1@
0$
1A
0?
#155000
0!
06
#157500
1!
16
0R
1K
1O
14
13
0F
1B
0@
1<
19
1%
1$
0L
1C
0=
0A
#160000
0!
06
#162500
1!
16
1P
0Q
1N
0O
04
15
0B
1>
0D
1)
0$
0C
#165000
0!
06
#167500
1!
16
0P
0N
05
1F
1D
0)
1L
1?
0:
#170000
0!
06
#172500
1!
16
1R
0;
0<
0F
1@
0>
0L
0?
1A
1=
#175000
0!
06
#177500
1!
16
0R
1Q
1O
14
1B
0@
1$
0A
1?
#180000
0!
06
#182500
1!
16
1R
0O
04
1F
0B
1@
0$
1A
0?
#185000
0!
06
#187500
1!
16
0R
0M
1O
14
00
0F
1B
0@
09
0(
1$
1L
0E
1:
0A
1?
#190000
0!
06
#192500
1!
16
1R
1;
0O
04
1F
0B
1@
0$
1A
0?
#195000
0!
06
#197500
1!
16
0R
1M
0G
1O
14
01
10
0F
1B
0@
1(
0'
1$
0H
0L
1E
0A
1?
#200000
0!
06
#202500
1!
16
1R
0O
04
1F
0B
1@
0$
1A
0?
#205000
0!
06
#207500
1!
16
0R
0M
0I
1G
1O
14
11
02
00
0F
1B
0@
0(
0&
1'
1$
1H
0J
1L
0E
0A
1?
#210000
0!
06
#212500
1!
16
1R
0O
04
1F
0B
1@
0$
1A
0?
#215000
0!
06
#217500
1!
16
0R
1M
0K
1I
0G
1O
14
01
12
03
10
0F
1B
0@
1(
0%
1&
0'
1$
0H
1J
1E
0A
1?
#220000
0!
06
#222500
1!
16
1R
0O
04
1F
0B
1@
0$
1A
0?
#225000
0!
06
#227500
1!
16
0R
1K
0I
1G
1O
14
11
02
13
0F
1B
0@
1%
0&
1'
1$
1H
0J
0L
0A
1?
#230000
0!
06
#232500
1!
16
1R
0O
04
1F
0B
1@
0$
1A
0?
#235000
0!
06
#237500
1!
16
0R
0M
0K
1I
1O
14
12
03
00
0F
1B
0@
0(
0%
1&
1$
1J
0E
0A
1?
#240000
0!
06
#242500
1!
16
1R
0O
04
1F
0B
1@
0$
1A
0?
#245000
0!
06
#247500
1!
16
0R
1K
0G
1O
14
01
13
0F
1B
0@
1%
0'
1$
0H
1L
0A
1?
#250000
0!
06
#252500
1!
16
1R
0O
04
1F
0B
1@
0$
1A
0?
#255000
0!
06
#257500
1!
16
0R
1M
0I
1O
14
02
10
0F
1B
0@
1(
0&
1$
0J
0L
1E
0A
1?
#260000
0!
06
#262500
1!
16
1R
0O
04
1F
0B
1@
0$
1A
0?
#265000
0!
06
#267500
1!
16
0R
0M
0K
1G
1O
14
11
03
00
0F
1B
0@
0(
0%
1'
1$
1H
0E
0A
1?
#270000
0!
06
#272500
1!
16
1R
0O
04
1F
0B
1@
0$
1A
0?
#275000
0!
06
#277500
1!
16
0R
1I
0G
1O
14
01
12
0F
1B
0@
1&
0'
1$
0H
1J
0A
1?
#280000
0!
06
#282500
1!
16
1R
0O
04
1F
0B
1@
0$
1A
0?
#285000
0!
06
#287500
1!
16
0R
1K
0I
1O
14
02
13
0F
1B
0@
1%
0&
1$
0J
1L
0A
1?
#290000
0!
06
#292500
1!
16
1R
0O
04
1F
0B
1@
0$
1A
0?
#295000
0!
06
#297500
1!
16
0R
1M
0K
1O
14
03
10
0F
1B
0@
1(
0%
1$
1E
0A
1?
#300000
0!
06
#302500
1!
16
1R
0O
04
1F
0B
1@
0$
1A
0?
#305000
0!
06
#307500
1!
16
0R
1G
1O
14
11
0F
1B
0@
1'
1$
1H
0A
1?
#310000
0!
06
#312500
1!
16
1R
0O
04
1F
0B
1@
0$
1A
0?
#315000
0!
06
#317500
1!
16
0R
1I
1O
14
12
0F
1B
0@
1&
1$
1J
0A
1?
#320000
0!
06
#322500
1!
16
1R
0O
04
1F
0B
1@
0$
1A
0?
#325000
0!
06
#327500
1!
16
0R
1K
1O
14
13
0F
1B
0@
1<
19
1%
1$
0L
1C
0=
0A
#330000
0!
06
#332500
1!
16
1P
0Q
1N
0O
04
15
0B
1>
0D
1)
0$
0C
#335000
0!
06
#337500
1!
16
0P
0N
05
1F
1D
0)
1L
1?
0:
#340000
0!
06
#342500
1!
16
1R
0;
0<
0F
1@
0>
0L
0?
1A
1=
#345000
0!
06
#347500
1!
16
0R
1Q
1O
14
1B
0@
1$
0A
1?
#350000
0!
06
#352500
1!
16
1R
0O
04
1F
0B
1@
0$
1A
0?
#355000
0!
06
#357500
1!
16
0R
0M
1O
14
00
0F
1B
0@
09
0(
1$
1L
0E
1:
0A
1?
#360000
0!
06
#362500
1!
16
1R
1;
0O
04
1F
0B
1@
0$
1A
0?
#365000
0!
06
#367500
1!
16
0R
1M
0G
1O
14
01
10
0F
1B
0@
1(
0'
1$
0H
0L
1E
0A
1?
#370000
0!
06
#372500
1!
16
1R
0O
04
1F
0B
1@
0$
1A
0?
#375000
0!
06
#377500
1!
16
0R
0M
0I
1G
1O
14
11
02
00
0F
1B
0@
0(
0&
1'
1$
1H
0J
1L
0E
0A
1?
#380000
0!
06
#382500
1!
16
1R
0O
04
1F
0B
1@
0$
1A
0?
#385000
0!
06
#387500
1!
16
0R
1M
0K
1I
0G
1O
14
01
12
03
10
0F
1B
0@
1(
0%
1&
0'
1$
0H
1J
1E
0A
1?
#390000
0!
06
#392500
1!
16
1R
0O
04
1F
0B
1@
0$
1A
0?
#395000
0!
06
#397500
1!
16
0R
1K
0I
1G
1O
14
11
02
13
0F
1B
0@
1%
0&
1'
1$
1H
0J
0L
0A
1?
