rtl/LFSR/simulation/qsim/LFSR_Controller.msim.vcd
$comment
	File created using the following command:
		vcd file LFSR_Controller.msim.vcd -direction
$end
$date
	Wed Jun 12 11:24:40 2024
$end
$version
	ModelSim Version 10.5b
$end
$timescale
	1ps
$end

$scope module LFSR_Controller_vlg_vec_tst $end
$var reg 1 ! clk $end
$var reg 1 " counter_read $end
$var reg 1 # reset $end
$var wire 1 $ available $end
$var wire 1 % counter [3] $end
$var wire 1 & counter [2] $end
$var wire 1 ' counter [1] $end
$var wire 1 ( counter [0] $end
$var wire 1 ) counter_finished $end

$scope module i1 $end
$var wire 1 * gnd $end
$var wire 1 + vcc $end
$var wire 1 , unknown $end
$var tri1 1 - devclrn $end
$var tri1 1 . devpor $end
$var tri1 1 / devoe $end
$var wire 1 0 counter[0]~output_o $end
$var wire 1 1 counter[1]~output_o $end
$var wire 1 2 counter[2]~output_o $end
$var wire 1 3 counter[3]~output_o $end
$var wire 1 4 available~output_o $end
$var wire 1 5 counter_finished~output_o $end
$var wire 1 6 clk~input_o $end
$var wire 1 7 reset~input_o $end
$var wire 1 8 counter_read~input_o $end
$var wire 1 9 next_state[3]~5_combout $end
$var wire 1 : next_state[0]~2_combout $end
$var wire 1 ; can_finish~0_combout $end
$var wire 1 < can_finish~1_combout $end
$var wire 1 = can_finish~q $end
$var wire 1 > always1~0_combout $end
$var wire 1 ? next_state[0]~4_combout $end
$var wire 1 @ Equal0~2_combout $end
$var wire 1 A Selector1~0_combout $end
$var wire 1 B next_state[4]~3_combout $end
$var wire 1 C Equal0~1_combout $end
$var wire 1 D next_state[3]~0_combout $end
$var wire 1 E next_state[3]~1_combout $end
$var wire 1 F Equal0~0_combout $end
$var wire 1 G counter~2_combout $end
$var wire 1 H counter[0]~1_combout $end
$var wire 1 I counter[1]~reg0_q $end
$var wire 1 J counter~3_combout $end
$var wire 1 K counter[2]~reg0_q $end
$var wire 1 L counter~4_combout $end
$var wire 1 M counter[3]~reg0_q $end
$var wire 1 N counter~0_combout $end
$var wire 1 O counter[0]~reg0_q $end
$var wire 1 P current_state [4] $end
$var wire 1 Q current_state [3] $end
$var wire 1 R current_state [2] $end
$var wire 1 S current_state [1] $end
$var wire 1 T current_state [0] $end
$upscope $end
$upscope $end
$enddefinitions $end
#0
$dumpvars
0!
0"
0#
0$
0(
0'
0&
0%
0)
0*
1+
x,
1-
1.
1/
00
01
02
03
04
05
06
07
08
19
0:
1;
0<
0=
0>
0?
1@
0A
0B
1C
1D
1E
1F
1G
1H
0I
1J
0K
1L
0M
1N
0O
0T
0S
0R
0Q
0P
$end
#2500
1!
16
1S
1O
1M
1K
1I
1Q
14
11
12
13
10
0H
0F
0@
1:
1A
0;
1(
1%
1&
1'
1$
0N
#5000
0!
06
#5400
1"
18
0E
1?
#7500
1!
16
1T
0Q
04
1H
0:
0A
0$
1E
0?
#9000
0"
08
#10000
0!
06
#12500
1!
16
0T
0O
1Q
14
00
0H
1:
1A
1;
0(
1$
1N
0G
1<
#14400
1"
18
0E
1?
#15000
0!
06
#17500
1!
16
1T
1=
0Q
04
1H
0:
0A
0$
1E
0?
#18000
0"
08
#20000
0!
06
#22500
1!
16
0T
1O
0I
1Q
14
01
10
0H
1:
1A
1(
0'
1$
0J
0N
1G
#23400
1"
18
0E
1?
#25000
0!
06
#27000
0"
08
1E
0?
#27500
1!
16
#30000
0!
06
#32400
1"
18
0E
1?
#32500
1!
16
1T
0Q
04
1H
0:
0A
0$
1E
0?
#35000
0!
06
#36000
0"
08
#37500
1!
16
0T
0O
0K
1I
1Q
14
11
02
00
0H
1:
1A
0(
0&
1'
1$
1J
0L
1N
0G
#40000
0!
06
#41400
1"
18
0E
1?
#42500
1!
16
1T
0Q
04
1H
0:
0A
0$
1E
0?
#45000
0"
0!
08
06
#47500
1!
16
0T
1O
0M
1K
0I
1Q
14
01
12
03
10
0H
1:
1A
1(
0%
1&
0'
1$
0J
1L
1G
#50000
0!
06
#50400
1"
18
0E
1?
#52500
1!
16
1T
0Q
04
1H
0:
0A
0$
1E
0?
#54000
0"
08
#55000
0!
06
#57500
1!
16
0T
1M
0K
1I
1Q
14
11
02
13
0H
1:
1A
1%
0&
1'
1$
1J
0L
0N
#59400
1"
18
0E
1?
#60000
0!
06
#62500
1!
16
1T
0Q
04
1H
0:
0A
0$
1E
0?
#63000
0"
08
#65000
0!
06
#67500
1!
16
0T
0O
0M
1K
1Q
14
12
03
00
0H
1:
1A
0(
0%
1&
1$
1L
0G
#68400
1"
18
0E
1?
#70000
0!
06
#72000
0"
08
1E
0?
#72500
1!
16
#75000
0!
06
#77400
1"
18
0E
1?
#77500
1!
16
1T
0Q
04
1H
0:
0A
0$
1E
0?
#80000
0!
06
#81000
0"
08
#82500
1!
16
0T
1M
0I
1Q
14
01
13
0H
1:
1A
1%
0'
1$
0J
1N
#85000
0!
06
#86400
1"
18
0E
1?
#87500
1!
16
1T
0Q
04
1H
0:
0A
0$
1E
0?
#90000
0"
0!
08
06
#92500
1!
16
0T
1O
0K
1Q
14
02
10
0H
1:
1A
1(
0&
1$
0L
0N
1G
#95000
0!
06
#95400
1"
18
0E
1?
#97500
1!
16
1T
0Q
04
1H
0:
0A
0$
1E
0?
#99000
0"
08
#100000
0!
06
#102500
1!
16
0T
0O
0M
1I
1Q
14
11
03
00
0H
1:
1A
0(
0%
1'
1$
1J
0G
#104400
1"
18
0E
1?
#105000
0!
06
#107500
1!
16
1T
0Q
04
1H
0:
0A
0$
1E
0?
#108000
0"
08
#110000
0!
06
#112500
1!
16
0T
1K
0I
1Q
14
01
12
0H
1:
1A
1&
0'
1$
0J
1L
#113400
1"
18
0E
1?
#115000
0!
06
#117000
0"
08
1E
0?
#117500
1!
16
#120000
0!
06
#122400
1"
18
0E
1?
#122500
1!
16
1T
0Q
04
1H
0:
0A
0$
1E
0?
#125000
0!
06
#126000
0"
08
#127500
1!
16
0T
1M
0K
1Q
14
02
13
0H
1:
1A
1%
0&
1$
0L
1N
#130000
0!
06
#131400
1"
18
0E
1?
#132500
1!
16
1T
0Q
04
1H
0:
0A
0$
1E
0?
#135000
0"
0!
08
06
#137500
1!
16
0T
1O
0M
1Q
14
03
10
0H
1:
1A
1(
0%
1$
1G
#140000
0!
06
#140400
1"
18
0E
1?
#142500
1!
16
1T
0Q
04
1H
0:
0A
0$
1E
0?
#144000
0"
08
#145000
0!
06
#147500
1!
16
0T
1I
1Q
14
11
0H
1:
1A
1'
1$
1J
#149400
1"
18
0E
1?
#150000
0!
06
#152500
1!
16
1T
0Q
04
1H
0:
0A
0$
1E
0?
#153000
0"
08
#155000
0!
06
#157500
1!
16
0T
1K
1Q
14
12
0H
1:
1A
1&
1$
1L
#158400
1"
18
0E
1?
#160000
0!
06
#162000
0"
08
1E
0?
#162500
1!
16
#165000
0!
06
#167400
1"
18
0E
1?
#167500
1!
16
1T
0Q
04
1H
0:
0A
0$
1E
0?
#170000
0!
06
#171000
0"
08
#172500
1!
16
0T
1M
1Q
14
13
0H
1:
1A
1>
0;
1%
1$
0N
0E
1B
09
#175000
0!
06
#176400
1"
18
#177500
1!
16
0S
1R
0Q
1P
15
04
0C
1@
0:
0$
1)
19
1E
0E
09
#180000
0"
0!
08
06
#182500
1!
16
#185000
0!
06
#187500
1!
16
#190000
0!
06
#192500
1!
16
#195000
0!
06
#197500
1!
16
#200000
1#
0!
17
06
1H
0D
1N
0B
0<
#202500
1!
16
0=
0R
0P
05
1F
1C
0A
0>
0)
#205000
0!
06
#207500
1!
16
#210000
0#
0!
07
06
1D
19
1E
#212500
1!
16
1S
1Q
14
0H
0F
0@
1:
1A
1$
0N
#215000
0!
06
#217500
1!
16
#220000
0!
06
#222500
1!
16
#225000
0!
06
#227500
1!
16
#230000
0!
06
#232500
1!
16
#235000
0!
06
#237500
1!
16
#240000
0!
06
#242500
1!
16
#245000
0!
06
#247500
1!
16
#250000
0!
06
#252500
1!
16
#255000
0!
06
#257500
1!
16
#260000
0!
06
#262500
1!
16
#265000
0!
06
#267500
1!
16
#270000
0!
06
#272500
1!
16
#275000
0!
06
#277500
1!
16
#280000
0!
06
#282500
1!
16
#285000
0!
06
#287500
1!
16
#290000
0!
06
#292500
1!
16
#295000
0!
06
#297500
1!
16
#300000
0!
06
#302500
1!
16
#305000
0!
06
#307500
1!
16
#310000
0!
06
#312500
1!
16
#315000
0!
06
#317500
1!
16
#320000
0!
06
#322500
1!
16
#325000
0!
06
#327500
1!
16
#330000
0!
06
#332500
1!
16
#335000
0!
06
#337500
1!
16
#340000
0!
06
#342500
1!
16
#345000
0!
06
#347500
1!
16
#350000
0!
06
#352500
1!
16
#355000
0!
06
#357500
1!
16
#360000
0!
06
#362500
1!
16
#365000
0!
06
#367500
1!
16
#370000
0!
06
#372500
1!
16
#375000
0!
06
#377500
1!
16
#380000
0!
06
#382500
1!
16
#385000
0!
06
#387500
1!
16
#390000
0!
06
#392500
1!
16
#395000
0!
06
#397500
1!
16
