rtl/LFSR/determine_valid_message/simulation/qsim/determine_valid_message.msim.vcd
$comment
	File created using the following command:
		vcd file determine_valid_message.msim.vcd -direction
$end
$date
	Fri Jun 14 20:49:03 2024
$end
$version
	ModelSim Version 10.5b
$end
$timescale
	1ps
$end

$scope module determine_valid_message_vlg_vec_tst $end
$var reg 1 ! CLOCK_50 $end
$var reg 1 " decrypt_done $end
$var reg 1 # decrypted_data_0_7 $end
$var reg 1 $ decrypted_data_0_6 $end
$var reg 1 % decrypted_data_0_5 $end
$var reg 1 & decrypted_data_0_4 $end
$var reg 1 ' decrypted_data_0_3 $end
$var reg 1 ( decrypted_data_0_2 $end
$var reg 1 ) decrypted_data_0_1 $end
$var reg 1 * decrypted_data_0_0 $end
$var reg 1 + decrypted_data_1_7 $end
$var reg 1 , decrypted_data_1_6 $end
$var reg 1 - decrypted_data_1_5 $end
$var reg 1 . decrypted_data_1_4 $end
$var reg 1 / decrypted_data_1_3 $end
$var reg 1 0 decrypted_data_1_2 $end
$var reg 1 1 decrypted_data_1_1 $end
$var reg 1 2 decrypted_data_1_0 $end
$var reg 1 3 decrypted_data_2_7 $end
$var reg 1 4 decrypted_data_2_6 $end
$var reg 1 5 decrypted_data_2_5 $end
$var reg 1 6 decrypted_data_2_4 $end
$var reg 1 7 decrypted_data_2_3 $end
$var reg 1 8 decrypted_data_2_2 $end
$var reg 1 9 decrypted_data_2_1 $end
$var reg 1 : decrypted_data_2_0 $end
$var reg 1 ; decrypted_data_3_7 $end
$var reg 1 < decrypted_data_3_6 $end
$var reg 1 = decrypted_data_3_5 $end
$var reg 1 > decrypted_data_3_4 $end
$var reg 1 ? decrypted_data_3_3 $end
$var reg 1 @ decrypted_data_3_2 $end
$var reg 1 A decrypted_data_3_1 $end
$var reg 1 B decrypted_data_3_0 $end
$var reg 1 C decrypted_data_4_7 $end
$var reg 1 D decrypted_data_4_6 $end
$var reg 1 E decrypted_data_4_5 $end
$var reg 1 F decrypted_data_4_4 $end
$var reg 1 G decrypted_data_4_3 $end
$var reg 1 H decrypted_data_4_2 $end
$var reg 1 I decrypted_data_4_1 $end
$var reg 1 J decrypted_data_4_0 $end
$var reg 1 K reset $end
$var wire 1 L finish $end
$var wire 1 M key_valid $end

$scope module i1 $end
$var wire 1 N gnd $end
$var wire 1 O vcc $end
$var wire 1 P unknown $end
$var tri1 1 Q devclrn $end
$var tri1 1 R devpor $end
$var tri1 1 S devoe $end
$var wire 1 T CLOCK_50~input_o $end
$var wire 1 U decrypt_done~input_o $end
$var wire 1 V index[4]~3_combout $end
$var wire 1 W reset~input_o $end
$var wire 1 X state[1]~1_combout $end
$var wire 1 Y index[0]~2_combout $end
$var wire 1 Z index[1]~1_combout $end
$var wire 1 [ index[2]~0_combout $end
$var wire 1 \ index[3]~4_combout $end
$var wire 1 ] LessThan0~0_combout $end
$var wire 1 ^ state[0]~2_combout $end
$var wire 1 _ state[1]~0_combout $end
$var wire 1 ` Mux0~9_combout $end
$var wire 1 a decrypted_data[16][4]~input_o $end
$var wire 1 b decrypted_data[20][4]~input_o $end
$var wire 1 c decrypted_data[24][4]~input_o $end
$var wire 1 d decrypted_data[28][4]~input_o $end
$var wire 1 e Mux3~0_combout $end
$var wire 1 f decrypted_data[18][4]~input_o $end
$var wire 1 g decrypted_data[22][4]~input_o $end
$var wire 1 h decrypted_data[26][4]~input_o $end
$var wire 1 i decrypted_data[30][4]~input_o $end
$var wire 1 j Mux3~1_combout $end
$var wire 1 k decrypted_data[17][4]~input_o $end
$var wire 1 l decrypted_data[21][4]~input_o $end
$var wire 1 m decrypted_data[25][4]~input_o $end
$var wire 1 n decrypted_data[29][4]~input_o $end
$var wire 1 o Mux3~2_combout $end
$var wire 1 p decrypted_data[19][4]~input_o $end
$var wire 1 q decrypted_data[23][4]~input_o $end
$var wire 1 r decrypted_data[27][4]~input_o $end
$var wire 1 s decrypted_data[31][4]~input_o $end
$var wire 1 t Mux3~3_combout $end
$var wire 1 u Mux3~4_combout $end
$var wire 1 v decrypted_data[8][4]~input_o $end
$var wire 1 w decrypted_data[10][4]~input_o $end
$var wire 1 x decrypted_data[9][4]~input_o $end
$var wire 1 y decrypted_data[11][4]~input_o $end
$var wire 1 z Mux3~5_combout $end
$var wire 1 { decrypted_data[12][4]~input_o $end
$var wire 1 | decrypted_data[14][4]~input_o $end
$var wire 1 } decrypted_data[13][4]~input_o $end
$var wire 1 ~ decrypted_data[15][4]~input_o $end
$var wire 1 !! Mux3~6_combout $end
$var wire 1 "! decrypted_data[4][4]~input_o $end
$var wire 1 #! decrypted_data[6][4]~input_o $end
$var wire 1 $! decrypted_data[5][4]~input_o $end
$var wire 1 %! decrypted_data[7][4]~input_o $end
$var wire 1 &! Mux3~7_combout $end
$var wire 1 '! decrypted_data[0][4]~input_o $end
$var wire 1 (! decrypted_data[2][4]~input_o $end
$var wire 1 )! decrypted_data[1][4]~input_o $end
$var wire 1 *! decrypted_data[3][4]~input_o $end
$var wire 1 +! Mux3~8_combout $end
$var wire 1 ,! Mux3~9_combout $end
$var wire 1 -! Mux3~10_combout $end
$var wire 1 .! decrypted_data[16][3]~input_o $end
$var wire 1 /! decrypted_data[20][3]~input_o $end
$var wire 1 0! decrypted_data[24][3]~input_o $end
$var wire 1 1! decrypted_data[28][3]~input_o $end
$var wire 1 2! Mux4~0_combout $end
$var wire 1 3! decrypted_data[18][3]~input_o $end
$var wire 1 4! decrypted_data[22][3]~input_o $end
$var wire 1 5! decrypted_data[26][3]~input_o $end
$var wire 1 6! decrypted_data[30][3]~input_o $end
$var wire 1 7! Mux4~1_combout $end
$var wire 1 8! decrypted_data[17][3]~input_o $end
$var wire 1 9! decrypted_data[21][3]~input_o $end
$var wire 1 :! decrypted_data[25][3]~input_o $end
$var wire 1 ;! decrypted_data[29][3]~input_o $end
$var wire 1 <! Mux4~2_combout $end
$var wire 1 =! decrypted_data[19][3]~input_o $end
$var wire 1 >! decrypted_data[23][3]~input_o $end
$var wire 1 ?! decrypted_data[27][3]~input_o $end
$var wire 1 @! decrypted_data[31][3]~input_o $end
$var wire 1 A! Mux4~3_combout $end
$var wire 1 B! Mux4~4_combout $end
$var wire 1 C! decrypted_data[8][3]~input_o $end
$var wire 1 D! decrypted_data[10][3]~input_o $end
$var wire 1 E! decrypted_data[9][3]~input_o $end
$var wire 1 F! decrypted_data[11][3]~input_o $end
$var wire 1 G! Mux4~5_combout $end
$var wire 1 H! decrypted_data[12][3]~input_o $end
$var wire 1 I! decrypted_data[14][3]~input_o $end
$var wire 1 J! decrypted_data[13][3]~input_o $end
$var wire 1 K! decrypted_data[15][3]~input_o $end
$var wire 1 L! Mux4~6_combout $end
$var wire 1 M! decrypted_data[4][3]~input_o $end
$var wire 1 N! decrypted_data[6][3]~input_o $end
$var wire 1 O! decrypted_data[5][3]~input_o $end
$var wire 1 P! decrypted_data[7][3]~input_o $end
$var wire 1 Q! Mux4~7_combout $end
$var wire 1 R! decrypted_data[0][3]~input_o $end
$var wire 1 S! decrypted_data[2][3]~input_o $end
$var wire 1 T! decrypted_data[1][3]~input_o $end
$var wire 1 U! decrypted_data[3][3]~input_o $end
$var wire 1 V! Mux4~8_combout $end
$var wire 1 W! Mux4~9_combout $end
$var wire 1 X! Mux4~10_combout $end
$var wire 1 Y! decrypted_data[16][2]~input_o $end
$var wire 1 Z! decrypted_data[20][2]~input_o $end
$var wire 1 [! decrypted_data[24][2]~input_o $end
$var wire 1 \! decrypted_data[28][2]~input_o $end
$var wire 1 ]! Mux5~0_combout $end
$var wire 1 ^! decrypted_data[18][2]~input_o $end
$var wire 1 _! decrypted_data[22][2]~input_o $end
$var wire 1 `! decrypted_data[26][2]~input_o $end
$var wire 1 a! decrypted_data[30][2]~input_o $end
$var wire 1 b! Mux5~1_combout $end
$var wire 1 c! decrypted_data[17][2]~input_o $end
$var wire 1 d! decrypted_data[21][2]~input_o $end
$var wire 1 e! decrypted_data[25][2]~input_o $end
$var wire 1 f! decrypted_data[29][2]~input_o $end
$var wire 1 g! Mux5~2_combout $end
$var wire 1 h! decrypted_data[19][2]~input_o $end
$var wire 1 i! decrypted_data[23][2]~input_o $end
$var wire 1 j! decrypted_data[27][2]~input_o $end
$var wire 1 k! decrypted_data[31][2]~input_o $end
$var wire 1 l! Mux5~3_combout $end
$var wire 1 m! Mux5~4_combout $end
$var wire 1 n! decrypted_data[8][2]~input_o $end
$var wire 1 o! decrypted_data[10][2]~input_o $end
$var wire 1 p! decrypted_data[9][2]~input_o $end
$var wire 1 q! decrypted_data[11][2]~input_o $end
$var wire 1 r! Mux5~5_combout $end
$var wire 1 s! decrypted_data[12][2]~input_o $end
$var wire 1 t! decrypted_data[14][2]~input_o $end
$var wire 1 u! decrypted_data[13][2]~input_o $end
$var wire 1 v! decrypted_data[15][2]~input_o $end
$var wire 1 w! Mux5~6_combout $end
$var wire 1 x! decrypted_data[4][2]~input_o $end
$var wire 1 y! decrypted_data[6][2]~input_o $end
$var wire 1 z! decrypted_data[5][2]~input_o $end
$var wire 1 {! decrypted_data[7][2]~input_o $end
$var wire 1 |! Mux5~7_combout $end
$var wire 1 }! decrypted_data[0][2]~input_o $end
$var wire 1 ~! decrypted_data[2][2]~input_o $end
$var wire 1 !" decrypted_data[1][2]~input_o $end
$var wire 1 "" decrypted_data[3][2]~input_o $end
$var wire 1 #" Mux5~8_combout $end
$var wire 1 $" Mux5~9_combout $end
$var wire 1 %" Mux5~10_combout $end
$var wire 1 &" decrypted_data[16][0]~input_o $end
$var wire 1 '" decrypted_data[20][0]~input_o $end
$var wire 1 (" decrypted_data[24][0]~input_o $end
$var wire 1 )" decrypted_data[28][0]~input_o $end
$var wire 1 *" Mux7~0_combout $end
$var wire 1 +" decrypted_data[18][0]~input_o $end
$var wire 1 ," decrypted_data[22][0]~input_o $end
$var wire 1 -" decrypted_data[26][0]~input_o $end
$var wire 1 ." decrypted_data[30][0]~input_o $end
$var wire 1 /" Mux7~1_combout $end
$var wire 1 0" decrypted_data[17][0]~input_o $end
$var wire 1 1" decrypted_data[21][0]~input_o $end
$var wire 1 2" decrypted_data[25][0]~input_o $end
$var wire 1 3" decrypted_data[29][0]~input_o $end
$var wire 1 4" Mux7~2_combout $end
$var wire 1 5" decrypted_data[19][0]~input_o $end
$var wire 1 6" decrypted_data[23][0]~input_o $end
$var wire 1 7" decrypted_data[27][0]~input_o $end
$var wire 1 8" decrypted_data[31][0]~input_o $end
$var wire 1 9" Mux7~3_combout $end
$var wire 1 :" Mux7~4_combout $end
$var wire 1 ;" decrypted_data[8][0]~input_o $end
$var wire 1 <" decrypted_data[10][0]~input_o $end
$var wire 1 =" decrypted_data[9][0]~input_o $end
$var wire 1 >" decrypted_data[11][0]~input_o $end
$var wire 1 ?" Mux7~5_combout $end
$var wire 1 @" decrypted_data[12][0]~input_o $end
$var wire 1 A" decrypted_data[14][0]~input_o $end
$var wire 1 B" decrypted_data[13][0]~input_o $end
$var wire 1 C" decrypted_data[15][0]~input_o $end
$var wire 1 D" Mux7~6_combout $end
$var wire 1 E" decrypted_data[4][0]~input_o $end
$var wire 1 F" decrypted_data[6][0]~input_o $end
$var wire 1 G" decrypted_data[5][0]~input_o $end
$var wire 1 H" decrypted_data[7][0]~input_o $end
$var wire 1 I" Mux7~7_combout $end
$var wire 1 J" decrypted_data[0][0]~input_o $end
$var wire 1 K" decrypted_data[2][0]~input_o $end
$var wire 1 L" decrypted_data[1][0]~input_o $end
$var wire 1 M" decrypted_data[3][0]~input_o $end
$var wire 1 N" Mux7~8_combout $end
$var wire 1 O" Mux7~9_combout $end
$var wire 1 P" Mux7~10_combout $end
$var wire 1 Q" decrypted_data[16][1]~input_o $end
$var wire 1 R" decrypted_data[20][1]~input_o $end
$var wire 1 S" decrypted_data[24][1]~input_o $end
$var wire 1 T" decrypted_data[28][1]~input_o $end
$var wire 1 U" Mux6~0_combout $end
$var wire 1 V" decrypted_data[18][1]~input_o $end
$var wire 1 W" decrypted_data[22][1]~input_o $end
$var wire 1 X" decrypted_data[26][1]~input_o $end
$var wire 1 Y" decrypted_data[30][1]~input_o $end
$var wire 1 Z" Mux6~1_combout $end
$var wire 1 [" decrypted_data[17][1]~input_o $end
$var wire 1 \" decrypted_data[21][1]~input_o $end
$var wire 1 ]" decrypted_data[25][1]~input_o $end
$var wire 1 ^" decrypted_data[29][1]~input_o $end
$var wire 1 _" Mux6~2_combout $end
$var wire 1 `" decrypted_data[19][1]~input_o $end
$var wire 1 a" decrypted_data[23][1]~input_o $end
$var wire 1 b" decrypted_data[27][1]~input_o $end
$var wire 1 c" decrypted_data[31][1]~input_o $end
$var wire 1 d" Mux6~3_combout $end
$var wire 1 e" Mux6~4_combout $end
$var wire 1 f" decrypted_data[8][1]~input_o $end
$var wire 1 g" decrypted_data[10][1]~input_o $end
$var wire 1 h" decrypted_data[9][1]~input_o $end
$var wire 1 i" decrypted_data[11][1]~input_o $end
$var wire 1 j" Mux6~5_combout $end
$var wire 1 k" decrypted_data[12][1]~input_o $end
$var wire 1 l" decrypted_data[14][1]~input_o $end
$var wire 1 m" decrypted_data[13][1]~input_o $end
$var wire 1 n" decrypted_data[15][1]~input_o $end
$var wire 1 o" Mux6~6_combout $end
$var wire 1 p" decrypted_data[4][1]~input_o $end
$var wire 1 q" decrypted_data[6][1]~input_o $end
$var wire 1 r" decrypted_data[5][1]~input_o $end
$var wire 1 s" decrypted_data[7][1]~input_o $end
$var wire 1 t" Mux6~7_combout $end
$var wire 1 u" decrypted_data[0][1]~input_o $end
$var wire 1 v" decrypted_data[2][1]~input_o $end
$var wire 1 w" decrypted_data[1][1]~input_o $end
$var wire 1 x" decrypted_data[3][1]~input_o $end
$var wire 1 y" Mux6~8_combout $end
$var wire 1 z" Mux6~9_combout $end
$var wire 1 {" Mux6~10_combout $end
$var wire 1 |" Mux10~2_combout $end
$var wire 1 }" key_valid~0_combout $end
$var wire 1 ~" decrypted_data[16][6]~input_o $end
$var wire 1 !# decrypted_data[20][6]~input_o $end
$var wire 1 "# decrypted_data[24][6]~input_o $end
$var wire 1 ## decrypted_data[28][6]~input_o $end
$var wire 1 $# Mux1~0_combout $end
$var wire 1 %# decrypted_data[18][6]~input_o $end
$var wire 1 &# decrypted_data[22][6]~input_o $end
$var wire 1 '# decrypted_data[26][6]~input_o $end
$var wire 1 (# decrypted_data[30][6]~input_o $end
$var wire 1 )# Mux1~1_combout $end
$var wire 1 *# decrypted_data[17][6]~input_o $end
$var wire 1 +# decrypted_data[21][6]~input_o $end
$var wire 1 ,# decrypted_data[25][6]~input_o $end
$var wire 1 -# decrypted_data[29][6]~input_o $end
$var wire 1 .# Mux1~2_combout $end
$var wire 1 /# decrypted_data[19][6]~input_o $end
$var wire 1 0# decrypted_data[23][6]~input_o $end
$var wire 1 1# decrypted_data[27][6]~input_o $end
$var wire 1 2# decrypted_data[31][6]~input_o $end
$var wire 1 3# Mux1~3_combout $end
$var wire 1 4# Mux1~4_combout $end
$var wire 1 5# decrypted_data[8][6]~input_o $end
$var wire 1 6# decrypted_data[10][6]~input_o $end
$var wire 1 7# decrypted_data[9][6]~input_o $end
$var wire 1 8# decrypted_data[11][6]~input_o $end
$var wire 1 9# Mux1~5_combout $end
$var wire 1 :# decrypted_data[12][6]~input_o $end
$var wire 1 ;# decrypted_data[14][6]~input_o $end
$var wire 1 <# decrypted_data[13][6]~input_o $end
$var wire 1 =# decrypted_data[15][6]~input_o $end
$var wire 1 ># Mux1~6_combout $end
$var wire 1 ?# decrypted_data[4][6]~input_o $end
$var wire 1 @# decrypted_data[6][6]~input_o $end
$var wire 1 A# decrypted_data[5][6]~input_o $end
$var wire 1 B# decrypted_data[7][6]~input_o $end
$var wire 1 C# Mux1~7_combout $end
$var wire 1 D# decrypted_data[0][6]~input_o $end
$var wire 1 E# decrypted_data[2][6]~input_o $end
$var wire 1 F# decrypted_data[1][6]~input_o $end
$var wire 1 G# decrypted_data[3][6]~input_o $end
$var wire 1 H# Mux1~8_combout $end
$var wire 1 I# Mux1~9_combout $end
$var wire 1 J# Mux1~10_combout $end
$var wire 1 K# decrypted_data[16][7]~input_o $end
$var wire 1 L# decrypted_data[20][7]~input_o $end
$var wire 1 M# decrypted_data[24][7]~input_o $end
$var wire 1 N# decrypted_data[28][7]~input_o $end
$var wire 1 O# Mux0~0_combout $end
$var wire 1 P# decrypted_data[18][7]~input_o $end
$var wire 1 Q# decrypted_data[22][7]~input_o $end
$var wire 1 R# decrypted_data[26][7]~input_o $end
$var wire 1 S# decrypted_data[30][7]~input_o $end
$var wire 1 T# Mux0~1_combout $end
$var wire 1 U# decrypted_data[17][7]~input_o $end
$var wire 1 V# decrypted_data[21][7]~input_o $end
$var wire 1 W# decrypted_data[25][7]~input_o $end
$var wire 1 X# decrypted_data[29][7]~input_o $end
$var wire 1 Y# Mux0~2_combout $end
$var wire 1 Z# decrypted_data[19][7]~input_o $end
$var wire 1 [# decrypted_data[23][7]~input_o $end
$var wire 1 \# decrypted_data[27][7]~input_o $end
$var wire 1 ]# decrypted_data[31][7]~input_o $end
$var wire 1 ^# Mux0~3_combout $end
$var wire 1 _# Mux0~4_combout $end
$var wire 1 `# decrypted_data[12][7]~input_o $end
$var wire 1 a# decrypted_data[14][7]~input_o $end
$var wire 1 b# decrypted_data[13][7]~input_o $end
$var wire 1 c# decrypted_data[15][7]~input_o $end
$var wire 1 d# Mux0~5_combout $end
$var wire 1 e# decrypted_data[4][7]~input_o $end
$var wire 1 f# decrypted_data[6][7]~input_o $end
$var wire 1 g# decrypted_data[5][7]~input_o $end
$var wire 1 h# decrypted_data[7][7]~input_o $end
$var wire 1 i# Mux0~6_combout $end
$var wire 1 j# decrypted_data[0][7]~input_o $end
$var wire 1 k# decrypted_data[2][7]~input_o $end
$var wire 1 l# decrypted_data[1][7]~input_o $end
$var wire 1 m# decrypted_data[3][7]~input_o $end
$var wire 1 n# Mux0~7_combout $end
$var wire 1 o# Mux0~8_combout $end
$var wire 1 p# decrypted_data[16][5]~input_o $end
$var wire 1 q# decrypted_data[20][5]~input_o $end
$var wire 1 r# decrypted_data[24][5]~input_o $end
$var wire 1 s# decrypted_data[28][5]~input_o $end
$var wire 1 t# Mux2~0_combout $end
$var wire 1 u# decrypted_data[18][5]~input_o $end
$var wire 1 v# decrypted_data[22][5]~input_o $end
$var wire 1 w# decrypted_data[26][5]~input_o $end
$var wire 1 x# decrypted_data[30][5]~input_o $end
$var wire 1 y# Mux2~1_combout $end
$var wire 1 z# decrypted_data[17][5]~input_o $end
$var wire 1 {# decrypted_data[21][5]~input_o $end
$var wire 1 |# decrypted_data[25][5]~input_o $end
$var wire 1 }# decrypted_data[29][5]~input_o $end
$var wire 1 ~# Mux2~2_combout $end
$var wire 1 !$ decrypted_data[19][5]~input_o $end
$var wire 1 "$ decrypted_data[23][5]~input_o $end
$var wire 1 #$ decrypted_data[27][5]~input_o $end
$var wire 1 $$ decrypted_data[31][5]~input_o $end
$var wire 1 %$ Mux2~3_combout $end
$var wire 1 &$ Mux2~4_combout $end
$var wire 1 '$ decrypted_data[8][5]~input_o $end
$var wire 1 ($ decrypted_data[10][5]~input_o $end
$var wire 1 )$ decrypted_data[9][5]~input_o $end
$var wire 1 *$ decrypted_data[11][5]~input_o $end
$var wire 1 +$ Mux2~5_combout $end
$var wire 1 ,$ decrypted_data[12][5]~input_o $end
$var wire 1 -$ decrypted_data[14][5]~input_o $end
$var wire 1 .$ decrypted_data[13][5]~input_o $end
$var wire 1 /$ decrypted_data[15][5]~input_o $end
$var wire 1 0$ Mux2~6_combout $end
$var wire 1 1$ decrypted_data[4][5]~input_o $end
$var wire 1 2$ decrypted_data[6][5]~input_o $end
$var wire 1 3$ decrypted_data[5][5]~input_o $end
$var wire 1 4$ decrypted_data[7][5]~input_o $end
$var wire 1 5$ Mux2~7_combout $end
$var wire 1 6$ decrypted_data[0][5]~input_o $end
$var wire 1 7$ decrypted_data[2][5]~input_o $end
$var wire 1 8$ decrypted_data[1][5]~input_o $end
$var wire 1 9$ decrypted_data[3][5]~input_o $end
$var wire 1 :$ Mux2~8_combout $end
$var wire 1 ;$ Mux2~9_combout $end
$var wire 1 <$ Mux2~10_combout $end
$var wire 1 =$ decrypted_data[8][7]~input_o $end
$var wire 1 >$ decrypted_data[10][7]~input_o $end
$var wire 1 ?$ decrypted_data[9][7]~input_o $end
$var wire 1 @$ decrypted_data[11][7]~input_o $end
$var wire 1 A$ Mux0~10_combout $end
$var wire 1 B$ Mux10~0_combout $end
$var wire 1 C$ Mux10~1_combout $end
$var wire 1 D$ always0~0_combout $end
$var wire 1 E$ key_valid~1_combout $end
$var wire 1 F$ key_valid~reg0_q $end
$var wire 1 G$ state [1] $end
$var wire 1 H$ state [0] $end
$var wire 1 I$ index [4] $end
$var wire 1 J$ index [3] $end
$var wire 1 K$ index [2] $end
$var wire 1 L$ index [1] $end
$var wire 1 M$ index [0] $end
$upscope $end
$upscope $end
$enddefinitions $end
#0
$dumpvars
0!
0"
0#
1$
1%
0&
0'
0(
0)
1*
0+
1,
1-
0.
0/
10
11
02
03
14
15
16
07
08
09
0:
0;
1<
1=
1>
1?
0@
1A
0B
0C
0D
0E
0F
1G
0H
1I
1J
0K
0L
1M
0N
1O
xP
1Q
1R
1S
0T
0U
0V
0W
0X
0Y
0Z
0[
0\
1]
0^
0_
0`
za
zb
zc
zd
xe
zf
zg
zh
zi
xj
zk
zl
zm
zn
xo
zp
zq
zr
zs
xt
xu
zv
zw
zx
zy
xz
z{
z|
z}
z~
x!!
0"!
z#!
z$!
z%!
0&!
0'!
1(!
0)!
1*!
0+!
0,!
0-!
z.!
z/!
z0!
z1!
x2!
z3!
z4!
z5!
z6!
x7!
z8!
z9!
z:!
z;!
x<!
z=!
z>!
z?!
z@!
xA!
xB!
zC!
zD!
zE!
zF!
xG!
zH!
zI!
zJ!
zK!
xL!
1M!
zN!
zO!
zP!
1Q!
0R!
0S!
0T!
1U!
0V!
0W!
0X!
zY!
zZ!
z[!
z\!
x]!
z^!
z_!
z`!
za!
xb!
zc!
zd!
ze!
zf!
xg!
zh!
zi!
zj!
zk!
xl!
xm!
zn!
zo!
zp!
zq!
xr!
zs!
zt!
zu!
zv!
xw!
0x!
zy!
zz!
z{!
0|!
0}!
0~!
1!"
0""
0#"
0$"
0%"
z&"
z'"
z("
z)"
x*"
z+"
z,"
z-"
z."
x/"
z0"
z1"
z2"
z3"
x4"
z5"
z6"
z7"
z8"
x9"
x:"
z;"
z<"
z="
z>"
x?"
z@"
zA"
zB"
zC"
xD"
1E"
zF"
zG"
zH"
1I"
1J"
0K"
0L"
0M"
1N"
1O"
1P"
zQ"
zR"
zS"
zT"
xU"
zV"
zW"
zX"
zY"
xZ"
z["
z\"
z]"
z^"
x_"
z`"
za"
zb"
zc"
xd"
xe"
zf"
zg"
zh"
zi"
xj"
zk"
zl"
zm"
zn"
xo"
1p"
zq"
zr"
zs"
1t"
0u"
0v"
1w"
1x"
0y"
0z"
0{"
1|"
0}"
z~"
z!#
z"#
z##
x$#
z%#
z&#
z'#
z(#
x)#
z*#
z+#
z,#
z-#
x.#
z/#
z0#
z1#
z2#
x3#
x4#
z5#
z6#
z7#
z8#
x9#
z:#
z;#
z<#
z=#
x>#
0?#
z@#
zA#
zB#
0C#
1D#
1E#
1F#
1G#
1H#
1I#
1J#
zK#
zL#
zM#
zN#
xO#
zP#
zQ#
zR#
zS#
xT#
zU#
zV#
zW#
zX#
xY#
zZ#
z[#
z\#
z]#
x^#
x_#
z`#
za#
zb#
zc#
xd#
0e#
zf#
zg#
zh#
0i#
0j#
0k#
0l#
0m#
0n#
0o#
zp#
zq#
zr#
zs#
xt#
zu#
zv#
zw#
zx#
xy#
zz#
z{#
z|#
z}#
x~#
z!$
z"$
z#$
z$$
x%$
x&$
z'$
z($
z)$
z*$
x+$
z,$
z-$
z.$
z/$
x0$
01$
z2$
z3$
z4$
05$
16$
17$
18$
19$
1:$
1;$
1<$
z=$
z>$
z?$
z@$
xA$
0B$
0C$
0D$
0E$
0F$
0H$
0G$
0M$
0L$
0K$
0J$
0I$
$end
#10000
1"
1U
1^
#20000
1!
1T
1H$
1B$
1}"
1X
1C$
1Y
1E$
0E$
#40000
0!
0T
#60000
0"
1!
0U
1T
1M$
x5$
xi#
xC#
1y"
xt"
0N"
xI"
1#"
x|!
xQ!
x&!
1Z
0Y
1$"
0O"
1z"
1{"
0P"
1%"
#80000
0!
0T
#100000
1!
1T
1L$
0M$
0y"
0#"
1+!
1Y
1,!
0$"
0z"
0{"
0%"
1-!
#120000
0!
0T
#140000
1!
1T
1M$
1y"
1V!
1[
0Z
0Y
1W!
1z"
1{"
1X!
#160000
0!
0T
#180000
1!
1T
1K$
0L$
0M$
05$
0i#
0C#
0y"
1t"
1N"
1I"
0|!
0V!
1Q!
0+!
0&!
x;$
xo#
xI#
xz"
xO"
x$"
xW!
x,!
1Y
x-!
xX!
x%"
xP"
x{"
xJ#
xC$
x<$
0,!
1W!
0$"
1O"
1z"
0I#
0o#
0;$
0<$
0J#
1{"
1P"
0%"
1X!
0-!
xD$
x|"
xE$
0D$
1|"
0C$
1E$
#200000
0!
0T
#220000
1!
1T
1F$
1M$
0M
x5$
xi#
xC#
1y"
xt"
0N"
xI"
1#"
x|!
xQ!
x&!
0]
0B$
1Z
0Y
0X
x,!
xW!
x$"
xO"
xz"
xI#
xo#
x;$
1_
0^
x<$
xJ#
x{"
xP"
x%"
xX!
x-!
0Z
1Y
xD$
x|"
#240000
0!
0T
#260000
1!
1T
0H$
1G$
1L
0}"
0_
#280000
0!
0T
#300000
1!
1T
0G$
0L
1}"
0E$
1E$
