rtl/Task1/simulation/qsim/populate_s_mem_by_index.msim.vcd
$comment
	File created using the following command:
		vcd file populate_s_mem_by_index.msim.vcd -direction
$end
$date
	Thu Jun 13 10:47:10 2024
$end
$version
	ModelSim Version 10.5b
$end
$timescale
	1ps
$end

$scope module populate_s_mem_by_index_vlg_vec_tst $end
$var reg 1 ! clk $end
$var reg 1 " reset $end
$var reg 1 # start $end
$var wire 1 $ address_out [7] $end
$var wire 1 % address_out [6] $end
$var wire 1 & address_out [5] $end
$var wire 1 ' address_out [4] $end
$var wire 1 ( address_out [3] $end
$var wire 1 ) address_out [2] $end
$var wire 1 * address_out [1] $end
$var wire 1 + address_out [0] $end
$var wire 1 , assign_by_index_done $end
$var wire 1 - data_out [7] $end
$var wire 1 . data_out [6] $end
$var wire 1 / data_out [5] $end
$var wire 1 0 data_out [4] $end
$var wire 1 1 data_out [3] $end
$var wire 1 2 data_out [2] $end
$var wire 1 3 data_out [1] $end
$var wire 1 4 data_out [0] $end
$var wire 1 5 write_enable_out $end

$scope module i1 $end
$var wire 1 6 gnd $end
$var wire 1 7 vcc $end
$var wire 1 8 unknown $end
$var tri1 1 9 devclrn $end
$var tri1 1 : devpor $end
$var tri1 1 ; devoe $end
$var wire 1 < address_out[0]~output_o $end
$var wire 1 = address_out[1]~output_o $end
$var wire 1 > address_out[2]~output_o $end
$var wire 1 ? address_out[3]~output_o $end
$var wire 1 @ address_out[4]~output_o $end
$var wire 1 A address_out[5]~output_o $end
$var wire 1 B address_out[6]~output_o $end
$var wire 1 C address_out[7]~output_o $end
$var wire 1 D data_out[0]~output_o $end
$var wire 1 E data_out[1]~output_o $end
$var wire 1 F data_out[2]~output_o $end
$var wire 1 G data_out[3]~output_o $end
$var wire 1 H data_out[4]~output_o $end
$var wire 1 I data_out[5]~output_o $end
$var wire 1 J data_out[6]~output_o $end
$var wire 1 K data_out[7]~output_o $end
$var wire 1 L write_enable_out~output_o $end
$var wire 1 M assign_by_index_done~output_o $end
$var wire 1 N clk~input_o $end
$var wire 1 O Add0~1_sumout $end
$var wire 1 P reset~input_o $end
$var wire 1 Q Add0~2 $end
$var wire 1 R Add0~5_sumout $end
$var wire 1 S Add0~6 $end
$var wire 1 T Add0~9_sumout $end
$var wire 1 U Add0~10 $end
$var wire 1 V Add0~13_sumout $end
$var wire 1 W Add0~14 $end
$var wire 1 X Add0~17_sumout $end
$var wire 1 Y Add0~18 $end
$var wire 1 Z Add0~21_sumout $end
$var wire 1 [ Add0~22 $end
$var wire 1 \ Add0~25_sumout $end
$var wire 1 ] Add0~26 $end
$var wire 1 ^ Add0~29_sumout $end
$var wire 1 _ Add0~30 $end
$var wire 1 ` Add0~33_sumout $end
$var wire 1 a LessThan0~0_combout $end
$var wire 1 b start~input_o $end
$var wire 1 c next_state.IDLE~0_combout $end
$var wire 1 d current_state.IDLE~q $end
$var wire 1 e next_state.FIRST~0_combout $end
$var wire 1 f current_state.FIRST~q $end
$var wire 1 g Selector0~0_combout $end
$var wire 1 h current_state.WAIT~q $end
$var wire 1 i next_state.DISEBLE~0_combout $end
$var wire 1 j current_state.DISEBLE~q $end
$var wire 1 k next_state.ASSIGN~0_combout $end
$var wire 1 l current_state.ASSIGN~q $end
$var wire 1 m address[0]~0_combout $end
$var wire 1 n Selector1~0_combout $end
$var wire 1 o current_state.FINISH~q $end
$var wire 1 p write_enable_out~0_combout $end
$var wire 1 q write_enable_out~reg0_q $end
$var wire 1 r assign_by_index_done~0_combout $end
$var wire 1 s assign_by_index_done~reg0_q $end
$var wire 1 t address [8] $end
$var wire 1 u address [7] $end
$var wire 1 v address [6] $end
$var wire 1 w address [5] $end
$var wire 1 x address [4] $end
$var wire 1 y address [3] $end
$var wire 1 z address [2] $end
$var wire 1 { address [1] $end
$var wire 1 | address [0] $end
$upscope $end
$upscope $end
$enddefinitions $end
#0
$dumpvars
0!
0"
1#
0+
0*
0)
0(
0'
0&
0%
0$
0,
04
03
02
01
00
0/
0.
0-
05
06
17
x8
19
1:
1;
0<
0=
0>
0?
0@
0A
0B
0C
0D
0E
0F
0G
0H
0I
0J
0K
0L
0M
0N
1O
0P
0Q
0R
0S
0T
0U
0V
0W
0X
0Y
0Z
0[
0\
0]
0^
0_
0`
1a
1b
1c
0d
1e
0f
0g
0h
0i
0j
0k
0l
0m
0n
0o
0p
0q
0r
0s
0|
0{
0z
0y
0x
0w
0v
0u
0t
$end
#5000
1!
1N
1f
1d
0e
1g
#10000
0!
0N
#15000
1!
1N
1h
0f
0g
1p
1i
#20000
0!
0N
#25000
1!
1N
1j
0h
1q
1L
15
0p
0i
1k
#30000
0!
0N
#35000
1!
1N
1l
0j
0q
0L
1m
05
0k
1g
#40000
0!
0N
#45000
1!
1N
0l
1h
1|
1<
1D
0m
1Q
14
1+
1p
1i
0g
0O
1R
#50000
0!
0N
#55000
1!
1N
1j
0h
1q
1L
15
0p
0i
1k
#60000
0!
0N
#65000
1!
1N
1l
0j
0q
0L
1m
05
0k
1g
#70000
0!
0N
#75000
1!
1N
0l
1h
0|
1{
1=
1E
0<
0D
0m
1S
0Q
04
0+
13
1*
1p
1i
0g
0R
1O
0S
1T
1R
0T
#80000
0!
0N
#85000
1!
1N
1j
0h
1q
1L
15
0p
0i
1k
#90000
0!
0N
#95000
1!
1N
1l
0j
0q
0L
1m
05
0k
1g
#100000
0!
0N
#105000
1!
1N
0l
1h
1|
1<
1D
0m
1Q
14
1+
1p
1i
0g
0O
1S
0R
1T
#110000
0!
0N
#115000
1!
1N
1j
0h
1q
1L
15
0p
0i
1k
#120000
0!
0N
#125000
1!
1N
1l
0j
0q
0L
1m
05
0k
1g
#130000
0!
0N
#135000
1!
1N
0l
1h
0|
1z
0{
0=
0E
1>
1F
0<
0D
0m
0S
1U
0Q
04
0+
12
1)
03
0*
1p
1i
0g
1R
0T
1O
0U
1T
1V
0R
0V
#140000
0!
0N
#145000
1!
1N
1j
0h
1q
1L
15
0p
0i
1k
#150000
0!
0N
#155000
1!
1N
1l
0j
0q
0L
1m
05
0k
1g
#160000
0!
0N
#165000
1!
1N
0l
1h
1|
1<
1D
0m
1Q
14
1+
1p
1i
0g
0O
1R
#170000
0!
0N
#175000
1!
1N
1j
0h
1q
1L
15
0p
0i
1k
#180000
0!
0N
#185000
1!
1N
1l
0j
0q
0L
1m
05
0k
1g
#190000
0!
0N
#195000
1!
1N
0l
1h
0|
1{
1=
1E
0<
0D
0m
1S
0Q
04
0+
13
1*
1p
1i
0g
0R
1O
1U
0S
0T
1R
0U
1V
1T
0V
#200000
0!
0N
#205000
1!
1N
1j
0h
1q
1L
15
0p
0i
1k
#210000
0!
0N
#215000
1!
1N
1l
0j
0q
0L
1m
05
0k
1g
#220000
0!
0N
#225000
1!
1N
0l
1h
1|
1<
1D
0m
1Q
14
1+
1p
1i
0g
0O
1S
0R
1U
0T
1V
#230000
0!
0N
#235000
1!
1N
1j
0h
1q
1L
15
0p
0i
1k
#240000
0!
0N
#245000
1!
1N
1l
0j
0q
0L
1m
05
0k
1g
#250000
0!
0N
#255000
1!
1N
0l
1h
0|
1y
0z
0{
0=
0E
0>
0F
1?
1G
0<
0D
0m
0S
0U
0a
1W
0Q
04
0+
11
1(
02
0)
03
0*
1p
1i
0g
1R
1T
0V
1O
0W
0T
1V
1X
0R
0X
#260000
0!
0N
#265000
1!
1N
1j
0h
1q
1L
15
0p
0i
1k
#270000
0!
0N
#275000
1!
1N
1l
0j
0q
0L
1m
05
0k
1n
#280000
0!
0N
#285000
1!
1N
1o
0l
1|
1<
1D
0m
1Q
14
1+
1r
0O
1R
#290000
0!
0N
#295000
1!
1N
1s
1M
1,
#300000
0!
0N
#305000
1!
1N
#310000
0!
0N
#315000
1!
1N
#320000
0!
0N
#325000
1!
1N
#330000
0!
0N
#335000
1!
1N
#340000
0!
0N
#345000
1!
1N
#350000
0!
0N
#355000
1!
1N
#360000
0!
0N
#365000
1!
1N
#370000
0!
0N
#375000
1!
1N
#380000
0!
0N
#385000
1!
1N
#390000
0!
0N
#395000
1!
1N
#400000
0!
0N
#405000
1!
1N
#410000
0!
0N
#415000
1!
1N
#420000
0!
0N
#425000
1!
1N
#430000
0!
0N
#435000
1!
1N
#440000
0!
0N
#445000
1!
1N
#450000
0!
0N
#455000
1!
1N
#460000
0!
0N
#465000
1!
1N
#470000
0!
0N
#475000
1!
1N
#480000
0!
0N
#485000
1!
1N
#490000
0!
0N
#495000
1!
1N
#500000
0!
0N
#505000
1!
1N
#510000
0!
0N
#515000
1!
1N
#520000
0!
0N
#525000
1!
1N
#530000
0!
0N
#535000
1!
1N
#540000
0!
0N
#545000
1!
1N
#550000
0!
0N
#555000
1!
1N
#560000
0!
0N
#565000
1!
1N
#570000
0!
0N
#575000
1!
1N
#580000
0!
0N
#585000
1!
1N
#590000
0!
0N
#595000
1!
1N
#600000
0!
0N
#605000
1!
1N
#610000
0!
0N
#615000
1!
1N
#620000
0!
0N
#625000
1!
1N
#630000
0!
0N
#635000
1!
1N
#640000
0!
0N
#645000
1!
1N
#650000
0!
0N
#655000
1!
1N
#660000
0!
0N
#665000
1!
1N
#670000
0!
0N
#675000
1!
1N
#680000
0!
0N
#685000
1!
1N
#690000
0!
0N
#695000
1!
1N
#700000
0!
0N
#705000
1!
1N
#710000
0!
0N
#715000
1!
1N
#720000
0!
0N
#725000
1!
1N
#730000
0!
0N
#735000
1!
1N
#740000
0!
0N
#745000
1!
1N
#750000
0!
0N
#755000
1!
1N
#760000
0!
0N
#765000
1!
1N
#770000
0!
0N
#775000
1!
1N
#780000
0!
0N
#785000
1!
1N
#790000
0!
0N
#795000
1!
1N
#800000
0!
0N
#805000
1!
1N
#810000
0!
0N
#815000
1!
1N
#820000
0!
0N
#825000
1!
1N
#830000
0!
0N
#835000
1!
1N
#840000
0!
0N
#845000
1!
1N
#850000
0!
0N
#855000
1!
1N
#860000
0!
0N
#865000
1!
1N
#870000
0!
0N
#875000
1!
1N
#880000
0!
0N
#885000
1!
1N
#890000
0!
0N
#895000
1!
1N
#900000
0!
0N
#905000
1!
1N
#910000
0!
0N
#915000
1!
1N
#920000
0!
0N
#925000
1!
1N
#930000
0!
0N
#935000
1!
1N
#940000
0!
0N
#945000
1!
1N
#950000
0!
0N
#955000
1!
1N
#960000
0!
0N
#965000
1!
1N
#970000
0!
0N
#975000
1!
1N
#980000
0!
0N
#985000
1!
1N
#990000
0!
0N
#995000
1!
1N
