rtl/Switches_FSM/simulation/qsim/switches_fsm.msim.vcd
$comment
	File created using the following command:
		vcd file switches_fsm.msim.vcd -direction
$end
$date
	Wed Jun 12 11:50:06 2024
$end
$version
	ModelSim Version 10.5b
$end
$timescale
	1ps
$end

$scope module switches_fsm_vlg_vec_tst $end
$var reg 1 ! CLOCK_50 $end
$var reg 10 " SW [9:0] $end
$var reg 1 # reset $end
$var wire 1 $ LEDR [9] $end
$var wire 1 % LEDR [8] $end
$var wire 1 & LEDR [7] $end
$var wire 1 ' LEDR [6] $end
$var wire 1 ( LEDR [5] $end
$var wire 1 ) LEDR [4] $end
$var wire 1 * LEDR [3] $end
$var wire 1 + LEDR [2] $end
$var wire 1 , LEDR [1] $end
$var wire 1 - LEDR [0] $end
$var wire 1 . key_available $end
$var wire 1 / key_changed $end
$var wire 1 0 secret_key [9] $end
$var wire 1 1 secret_key [8] $end
$var wire 1 2 secret_key [7] $end
$var wire 1 3 secret_key [6] $end
$var wire 1 4 secret_key [5] $end
$var wire 1 5 secret_key [4] $end
$var wire 1 6 secret_key [3] $end
$var wire 1 7 secret_key [2] $end
$var wire 1 8 secret_key [1] $end
$var wire 1 9 secret_key [0] $end

$scope module i1 $end
$var wire 1 : gnd $end
$var wire 1 ; vcc $end
$var wire 1 < unknown $end
$var tri1 1 = devclrn $end
$var tri1 1 > devpor $end
$var tri1 1 ? devoe $end
$var wire 1 @ reset~input_o $end
$var wire 1 A LEDR[0]~output_o $end
$var wire 1 B LEDR[1]~output_o $end
$var wire 1 C LEDR[2]~output_o $end
$var wire 1 D LEDR[3]~output_o $end
$var wire 1 E LEDR[4]~output_o $end
$var wire 1 F LEDR[5]~output_o $end
$var wire 1 G LEDR[6]~output_o $end
$var wire 1 H LEDR[7]~output_o $end
$var wire 1 I LEDR[8]~output_o $end
$var wire 1 J LEDR[9]~output_o $end
$var wire 1 K secret_key[0]~output_o $end
$var wire 1 L secret_key[1]~output_o $end
$var wire 1 M secret_key[2]~output_o $end
$var wire 1 N secret_key[3]~output_o $end
$var wire 1 O secret_key[4]~output_o $end
$var wire 1 P secret_key[5]~output_o $end
$var wire 1 Q secret_key[6]~output_o $end
$var wire 1 R secret_key[7]~output_o $end
$var wire 1 S secret_key[8]~output_o $end
$var wire 1 T secret_key[9]~output_o $end
$var wire 1 U key_available~output_o $end
$var wire 1 V key_changed~output_o $end
$var wire 1 W CLOCK_50~input_o $end
$var wire 1 X SW[0]~input_o $end
$var wire 1 Y SW[9]~input_o $end
$var wire 1 Z secret_key[9]~reg0_q $end
$var wire 1 [ Equal0~0_combout $end
$var wire 1 \ SW[6]~input_o $end
$var wire 1 ] secret_key[6]~reg0_q $end
$var wire 1 ^ SW[7]~input_o $end
$var wire 1 _ secret_key[7]~reg0_q $end
$var wire 1 ` SW[8]~input_o $end
$var wire 1 a secret_key[8]~reg0_q $end
$var wire 1 b Equal0~1_combout $end
$var wire 1 c SW[1]~input_o $end
$var wire 1 d secret_key[1]~reg0_q $end
$var wire 1 e SW[2]~input_o $end
$var wire 1 f secret_key[2]~reg0_q $end
$var wire 1 g Equal0~2_combout $end
$var wire 1 h SW[3]~input_o $end
$var wire 1 i secret_key[3]~reg0_q $end
$var wire 1 j SW[4]~input_o $end
$var wire 1 k secret_key[4]~reg0_q $end
$var wire 1 l SW[5]~input_o $end
$var wire 1 m secret_key[5]~reg0_q $end
$var wire 1 n Equal0~3_combout $end
$var wire 1 o Mux0~0_combout $end
$var wire 1 p Mux0~1_combout $end
$var wire 1 q Mux1~0_combout $end
$var wire 1 r Mux1~1_combout $end
$var wire 1 s Equal1~0_combout $end
$var wire 1 t secret_key[0]~reg0_q $end
$var wire 1 u current_state [3] $end
$var wire 1 v current_state [2] $end
$var wire 1 w current_state [1] $end
$var wire 1 x current_state [0] $end
$upscope $end
$upscope $end
$enddefinitions $end
#0
$dumpvars
0!
b1010010000 "
0#
0-
0,
0+
0*
0)
0(
0'
0&
0%
0$
0.
0/
09
08
07
06
05
04
03
02
01
00
0:
1;
x<
1=
1>
1?
0@
0A
0B
0C
0D
0E
0F
0G
0H
0I
0J
0K
0L
0M
0N
0O
0P
0Q
0R
0S
0T
0U
0V
0W
0X
1Y
0Z
1[
0\
0]
1^
0_
0`
0a
0b
0c
0d
0e
0f
1g
0h
0i
1j
0k
0l
0m
0n
1o
1p
0q
0r
0s
0t
0x
0w
0v
0u
$end
#5000
1!
1W
1x
1u
1V
1s
0o
1/
0p
1r
#10000
0!
0W
#15000
1!
1W
1w
0x
1v
0u
1k
1_
1Z
1J
1T
1H
1R
1E
1O
0V
1U
0s
1q
0[
1b
1n
1.
0/
15
1)
12
1&
10
1$
#20000
0!
0W
#25000
1!
1W
#30000
0!
0W
#35000
1!
1W
#40000
0!
0W
#45000
1!
1W
#50000
b1110010000 "
b1100010000 "
b1100110000 "
b1100100000 "
b1100101000 "
0!
1h
0j
1l
0^
1`
0W
0b
0n
0r
1p
#55000
1!
1W
0w
1x
0v
1u
1V
0U
1s
0q
0.
1/
1r
0p
#60000
0!
0W
#65000
1!
1W
1w
0x
1v
0u
1m
0k
1i
1a
0_
0H
0R
1I
1S
1D
1N
0E
0O
1F
1P
0V
1U
0s
1q
1b
1n
1.
0/
14
1(
05
0)
16
1*
11
1%
02
0&
#70000
0!
0W
#75000
1!
1W
#80000
0!
0W
#85000
1!
1W
#90000
0!
0W
#95000
1!
1W
#100000
b100101000 "
b100101010 "
b101010 "
b10101010 "
b10001010 "
0!
1c
0l
1^
0`
0Y
0W
1[
0b
0n
0g
0r
1p
#105000
1!
1W
0w
1x
0v
1u
1V
0U
1s
0q
0.
1/
1r
0p
#110000
0!
0W
#115000
1!
1W
1w
0x
1v
0u
0m
1d
0a
1_
0Z
0J
0T
1H
1R
0I
0S
1B
1L
0F
0P
0V
1U
0s
1q
0[
1b
1g
1n
1.
0/
04
0(
18
1,
01
0%
12
1&
00
0$
#120000
0!
0W
#125000
1!
1W
#130000
0!
0W
#135000
1!
1W
#140000
0!
0W
#145000
1!
1W
#150000
b10001110 "
b10001111 "
b1010001111 "
b1010001101 "
b1110001101 "
0!
1X
0c
1e
1`
1Y
0W
1[
0b
0g
0r
1p
#155000
1!
1W
0w
1x
0v
1u
1V
0U
1s
0q
0.
1/
1r
0p
#160000
0!
0W
#165000
1!
1W
1w
0x
1t
1v
0u
1f
0d
1a
1Z
1J
1T
1I
1S
0B
0L
1C
1M
0V
1U
1A
1K
0s
1q
0[
1b
1g
19
1-
1.
0/
17
1+
08
0,
11
1%
10
1$
#170000
0!
0W
#175000
1!
1W
#180000
0!
0W
#185000
1!
1W
#190000
0!
0W
#195000
1!
1W
#200000
b1110000101 "
b1110000001 "
b1110000000 "
b110000000 "
b10000000 "
0!
0X
0e
0h
0`
0Y
0W
1[
0b
0n
0g
0r
1p
#205000
1!
1W
0w
1x
0v
1u
1V
0U
1s
0q
0.
1/
1r
0p
#210000
0!
0W
#215000
1!
1W
1w
0x
0t
1v
0u
0i
0f
0a
0Z
0J
0T
0I
0S
0C
0M
0D
0N
0V
1U
0A
0K
0s
1q
0[
1b
1g
1n
09
0-
1.
0/
06
0*
07
0+
01
0%
00
0$
#220000
0!
0W
#225000
1!
1W
#230000
0!
0W
#235000
1!
1W
#240000
0!
0W
#245000
1!
1W
#250000
b10010000 "
b10000 "
b11000 "
b11100 "
0!
1e
1h
1j
0^
0W
0b
0n
0g
0r
1p
#255000
1!
1W
0w
1x
0v
1u
1V
0U
1s
0q
0.
1/
1r
0p
#260000
0!
0W
#265000
1!
1W
1w
0x
1v
0u
1k
1i
1f
0_
0H
0R
1C
1M
1D
1N
1E
1O
0V
1U
0s
1q
1b
1g
1n
1.
0/
15
1)
16
1*
17
1+
02
0&
#270000
0!
0W
#275000
1!
1W
#280000
0!
0W
#285000
1!
1W
#290000
0!
0W
#295000
1!
1W
#300000
b1011100 "
b1011110 "
b1011111 "
b101011111 "
b101010111 "
0!
1X
1c
0h
1\
1`
0W
0b
0n
0g
0r
1p
#305000
1!
1W
0w
1x
0v
1u
1V
0U
1s
0q
0.
1/
1r
0p
#310000
0!
0W
#315000
1!
1W
1w
0x
1t
1v
0u
0i
1d
1a
1]
1G
1Q
1I
1S
1B
1L
0D
0N
0V
1U
1A
1K
0s
1q
1b
1g
1n
19
1-
1.
0/
06
0*
18
1,
11
1%
13
1'
#320000
0!
0W
#325000
1!
1W
#330000
0!
0W
#335000
1!
1W
#340000
0!
0W
#345000
1!
1W
#350000
b1101010111 "
b1101000111 "
b1100000111 "
b1100000101 "
0!
0c
0j
0\
1Y
0W
1[
0b
0n
0g
0r
1p
#355000
1!
1W
0w
1x
0v
1u
1V
0U
1s
0q
0.
1/
1r
0p
#360000
0!
0W
#365000
1!
1W
1w
0x
1v
0u
0k
0d
0]
1Z
1J
1T
0G
0Q
0B
0L
0E
0O
0V
1U
0s
1q
0[
1b
1g
1n
1.
0/
05
0)
08
0,
03
0'
10
1$
#370000
0!
0W
#375000
1!
1W
#380000
0!
0W
#385000
1!
1W
#390000
0!
0W
#395000
1!
1W
#400000
b1100000001 "
b1000000001 "
b1000001001 "
b1001 "
b1011 "
0!
1c
0e
1h
0`
0Y
0W
1[
0b
0n
0g
0r
1p
#405000
1!
1W
0w
1x
0v
1u
1V
0U
1s
0q
0.
1/
1r
0p
#410000
0!
0W
#415000
1!
1W
1w
0x
1v
0u
1i
0f
1d
0a
0Z
0J
0T
0I
0S
1B
1L
0C
0M
1D
1N
0V
1U
0s
1q
0[
1b
1g
1n
1.
0/
16
1*
07
0+
18
1,
01
0%
00
0$
#420000
0!
0W
#425000
1!
1W
#430000
0!
0W
#435000
1!
1W
#440000
0!
0W
#445000
1!
1W
#450000
b11011 "
b1011011 "
0!
1j
1\
0W
0b
0n
0r
1p
#455000
1!
1W
0w
1x
0v
1u
1V
0U
1s
0q
0.
1/
1r
0p
#460000
0!
0W
#465000
1!
1W
1w
0x
1v
0u
1k
1]
1G
1Q
1E
1O
0V
1U
0s
1q
1b
1n
1.
0/
15
1)
13
1'
#470000
0!
0W
#475000
1!
1W
#480000
0!
0W
#485000
1!
1W
#490000
0!
0W
#495000
1!
1W
#500000
b101011011 "
b1101011011 "
b1101011001 "
b1100011001 "
0!
0c
0\
1`
1Y
0W
1[
0b
0g
0r
1p
#505000
1!
1W
0w
1x
0v
1u
1V
0U
1s
0q
0.
1/
1r
0p
#510000
0!
0W
#515000
1!
1W
1w
0x
1v
0u
0d
1a
0]
1Z
1J
1T
0G
0Q
1I
1S
0B
0L
0V
1U
0s
1q
0[
1b
1g
1.
0/
08
0,
11
1%
03
0'
10
1$
#520000
0!
0W
#525000
1!
1W
#530000
0!
0W
#535000
1!
1W
#540000
0!
0W
#545000
1!
1W
#550000
b1100111001 "
b1100111000 "
b1100111100 "
b1100101100 "
b100101100 "
b100101110 "
b101101110 "
0!
0X
1c
1e
0j
1l
1\
0Y
0W
1[
0b
0n
0g
0r
1p
#555000
1!
1W
0w
1x
0v
1u
1V
0U
1s
0q
0.
1/
1r
0p
#560000
0!
0W
#565000
1!
1W
1w
0x
0t
1v
0u
1m
0k
1f
1d
1]
0Z
0J
0T
1G
1Q
1B
1L
1C
1M
0E
0O
1F
1P
0V
1U
0A
0K
0s
1q
0[
1b
1g
1n
09
0-
1.
0/
14
1(
05
0)
17
1+
18
1,
13
1'
00
0$
#570000
0!
0W
#575000
1!
1W
#580000
0!
0W
#585000
1!
1W
#590000
0!
0W
#595000
1!
1W
#600000
b1101110 "
b1001110 "
b1011110 "
b1001011110 "
b1001011100 "
0!
0c
1j
0l
0`
1Y
0W
1[
0b
0n
0g
0r
1p
#605000
1!
1W
0w
1x
0v
1u
1V
0U
1s
0q
0.
1/
1r
0p
#610000
0!
0W
#615000
1!
1W
1w
0x
1v
0u
0m
1k
0d
0a
1Z
1J
1T
0I
0S
0B
0L
1E
1O
0F
0P
0V
1U
0s
1q
0[
1b
1g
1n
1.
0/
04
0(
15
1)
08
0,
01
0%
10
1$
#620000
0!
0W
#625000
1!
1W
#630000
0!
0W
#635000
1!
1W
#640000
0!
0W
#645000
1!
1W
#650000
b1011011100 "
b1011011101 "
b1111011101 "
b1111001101 "
b111001101 "
b111001111 "
0!
1X
1c
0j
1^
1`
0Y
0W
1[
0b
0n
0g
0r
1p
#655000
1!
1W
0w
1x
0v
1u
1V
0U
1s
0q
0.
1/
1r
0p
#660000
0!
0W
#665000
1!
1W
1w
0x
1t
1v
0u
0k
1d
1a
1_
0Z
0J
0T
1H
1R
1I
1S
1B
1L
0E
0O
0V
1U
1A
1K
0s
1q
0[
1b
1g
1n
19
1-
1.
0/
05
0)
18
1,
11
1%
12
1&
00
0$
#670000
0!
0W
#675000
1!
1W
#680000
0!
0W
#685000
1!
1W
#690000
0!
0W
#695000
1!
1W
#700000
b111000111 "
b110000111 "
b110000110 "
b10000110 "
b1010000110 "
0!
0X
0h
0\
0`
1Y
0W
1[
0b
0n
0g
0r
1p
#705000
1!
1W
0w
1x
0v
1u
1V
0U
1s
0q
0.
1/
1r
0p
#710000
0!
0W
#715000
1!
1W
1w
0x
0t
1v
0u
0i
0a
0]
1Z
1J
1T
0G
0Q
0I
0S
0D
0N
0V
1U
0A
0K
0s
1q
0[
1b
1n
1g
09
0-
1.
0/
06
0*
01
0%
03
0'
10
1$
#720000
0!
0W
#725000
1!
1W
#730000
0!
0W
#735000
1!
1W
#740000
0!
0W
#745000
1!
1W
#750000
b1010000010 "
b1010100010 "
b1010100000 "
b1010101000 "
b1011101000 "
b1011101001 "
b11101001 "
0!
1X
0c
0e
1h
1l
1\
0Y
0W
1[
0b
0n
0g
0r
1p
#755000
1!
1W
0w
1x
0v
1u
1V
0U
1s
0q
0.
1/
1r
0p
#760000
0!
0W
#765000
1!
1W
1w
0x
1t
1v
0u
1m
1i
0f
0d
1]
0Z
0J
0T
1G
1Q
0B
0L
0C
0M
1D
1N
1F
1P
0V
1U
1A
1K
0s
1q
0[
1b
1g
1n
19
1-
1.
0/
14
1(
16
1*
07
0+
08
0,
13
1'
00
0$
#770000
0!
0W
#775000
1!
1W
#780000
0!
0W
#785000
1!
1W
#790000
0!
0W
#795000
1!
1W
#800000
b1101001 "
b101101001 "
b101101101 "
b101101111 "
b101100111 "
0!
1c
1e
0h
0^
1`
0W
0b
0n
0g
0r
1p
#805000
1!
1W
0w
1x
0v
1u
1V
0U
1s
0q
0.
1/
1r
0p
#810000
0!
0W
#815000
1!
1W
1w
0x
1v
0u
0i
1f
1d
1a
0_
0H
0R
1I
1S
1B
1L
1C
1M
0D
0N
0V
1U
0s
1q
1b
1g
1n
1.
0/
06
0*
17
1+
18
1,
11
1%
02
0&
#820000
0!
0W
#825000
1!
1W
#830000
0!
0W
#835000
1!
1W
#840000
0!
0W
#845000
1!
1W
#850000
b101000111 "
b1101000111 "
b1111000111 "
b1011000111 "
b1011000011 "
b1011001011 "
0!
0e
1h
0l
1^
0`
1Y
0W
1[
0b
0n
0g
0r
1p
#855000
1!
1W
0w
1x
0v
1u
1V
0U
1s
0q
0.
1/
1r
0p
#860000
0!
0W
#865000
1!
1W
1w
0x
1v
0u
0m
1i
0f
0a
1_
1Z
1J
1T
1H
1R
0I
0S
0C
0M
1D
1N
0F
0P
0V
1U
0s
1q
0[
1b
1g
1n
1.
0/
04
0(
16
1*
07
0+
01
0%
12
1&
10
1$
#870000
0!
0W
#875000
1!
1W
#880000
0!
0W
#885000
1!
1W
#890000
0!
0W
#895000
1!
1W
#900000
b1011001010 "
b1011001000 "
b11001000 "
b11001100 "
b11000100 "
0!
0X
0c
1e
0h
0Y
0W
1[
0n
0g
0r
1p
#905000
1!
1W
0w
1x
0v
1u
1V
0U
1s
0q
0.
1/
1r
0p
#910000
0!
0W
#915000
1!
1W
1w
0x
0t
1v
0u
0i
1f
0d
0Z
0J
0T
0B
0L
1C
1M
0D
0N
0V
1U
0A
0K
0s
1q
0[
1g
1n
09
0-
1.
0/
06
0*
17
1+
08
0,
00
0$
#920000
0!
0W
#925000
1!
1W
#930000
0!
0W
#935000
1!
1W
#940000
0!
0W
#945000
1!
1W
#950000
b10000100 "
b100 "
b100000100 "
b100000101 "
b100000111 "
b1100000111 "
b1100000011 "
b1100001011 "
0!
1X
1c
0e
1h
0\
0^
1`
1Y
0W
1[
0b
0n
0g
0r
1p
#955000
1!
1W
0w
1x
0v
1u
1V
0U
1s
0q
0.
1/
1r
0p
#960000
0!
0W
#965000
1!
1W
1w
0x
1t
1v
0u
1i
0f
1d
1a
0_
0]
1Z
1J
1T
0G
0Q
0H
0R
1I
1S
1B
1L
0C
0M
1D
1N
0V
1U
1A
1K
0s
1q
0[
1b
1g
1n
19
1-
1.
0/
16
1*
07
0+
18
1,
11
1%
02
0&
03
0'
10
1$
