rtl/time_machine/simulation/qsim/time_machine.msim.vcd
$comment
	File created using the following command:
		vcd file time_machine.msim.vcd -direction
$end
$date
	Mon Jun 17 19:37:59 2024
$end
$version
	ModelSim Version 10.5b
$end
$timescale
	1ps
$end

$scope module time_machine_vlg_vec_tst $end
$var reg 1 ! CLOCK_50 $end
$var reg 1 " ROM_mem_read $end
$var reg 1 # assign_by_index_done $end
$var reg 1 $ decrypt_done $end
$var reg 1 % key_from_switches_available $end
$var reg 1 & key_from_switches_changed $end
$var reg 1 ' new_key_available $end
$var reg 1 ( reset $end
$var reg 1 ) s_data_read_done $end
$var reg 1 * sec_shuffle_done $end
$var reg 1 + shuffle_mem_finished $end
$var reg 1 , stop $end
$var wire 1 - current_state [7] $end
$var wire 1 . current_state [6] $end
$var wire 1 / current_state [5] $end
$var wire 1 0 current_state [4] $end
$var wire 1 1 current_state [3] $end
$var wire 1 2 current_state [2] $end
$var wire 1 3 current_state [1] $end
$var wire 1 4 current_state [0] $end
$var wire 1 5 done $end
$var wire 1 6 reset_all $end
$var wire 1 7 s_data_read_start $end
$var wire 1 8 start_decrypt $end
$var wire 1 9 start_s_i_i $end
$var wire 1 : start_sec_shuffle $end
$var wire 1 ; start_shuffle $end

$scope module i1 $end
$var wire 1 < gnd $end
$var wire 1 = vcc $end
$var wire 1 > unknown $end
$var tri1 1 ? devclrn $end
$var tri1 1 @ devpor $end
$var tri1 1 A devoe $end
$var wire 1 B sec_shuffle_done~input_o $end
$var wire 1 C decrypt_done~input_o $end
$var wire 1 D reset_all~output_o $end
$var wire 1 E start_s_i_i~output_o $end
$var wire 1 F start_shuffle~output_o $end
$var wire 1 G start_sec_shuffle~output_o $end
$var wire 1 H s_data_read_start~output_o $end
$var wire 1 I start_decrypt~output_o $end
$var wire 1 J current_state[0]~output_o $end
$var wire 1 K current_state[1]~output_o $end
$var wire 1 L current_state[2]~output_o $end
$var wire 1 M current_state[3]~output_o $end
$var wire 1 N current_state[4]~output_o $end
$var wire 1 O current_state[5]~output_o $end
$var wire 1 P current_state[6]~output_o $end
$var wire 1 Q current_state[7]~output_o $end
$var wire 1 R done~output_o $end
$var wire 1 S CLOCK_50~input_o $end
$var wire 1 T reset~input_o $end
$var wire 1 U key_from_switches_changed~input_o $end
$var wire 1 V always0~0_combout $end
$var wire 1 W Selector6~0_combout $end
$var wire 1 X assign_by_index_done~input_o $end
$var wire 1 Y Selector8~4_combout $end
$var wire 1 Z shuffle_mem_finished~input_o $end
$var wire 1 [ ROM_mem_read~input_o $end
$var wire 1 \ stop~input_o $end
$var wire 1 ] current_state~6_combout $end
$var wire 1 ^ current_state~7_combout $end
$var wire 1 _ current_state[5]~reg0_q $end
$var wire 1 ` current_state~9_combout $end
$var wire 1 a Selector9~0_combout $end
$var wire 1 b s_data_read_done~input_o $end
$var wire 1 c Selector8~1_combout $end
$var wire 1 d current_state~10_combout $end
$var wire 1 e current_state[1]~reg0_q $end
$var wire 1 f Selector5~0_combout $end
$var wire 1 g current_state~1_combout $end
$var wire 1 h key_from_switches_available~input_o $end
$var wire 1 i new_key_available~input_o $end
$var wire 1 j Selector8~3_combout $end
$var wire 1 k current_state[3]~2_combout $end
$var wire 1 l current_state[3]~3_combout $end
$var wire 1 m current_state[3]~4_combout $end
$var wire 1 n current_state[3]~reg0_q $end
$var wire 1 o current_state~8_combout $end
$var wire 1 p current_state[6]~reg0_q $end
$var wire 1 q Selector8~6_combout $end
$var wire 1 r Selector8~7_combout $end
$var wire 1 s Selector8~5_combout $end
$var wire 1 t Selector8~8_combout $end
$var wire 1 u Selector8~2_combout $end
$var wire 1 v current_state[0]~reg0_q $end
$var wire 1 w Selector6~2_combout $end
$var wire 1 x current_state~5_combout $end
$var wire 1 y current_state[4]~reg0_q $end
$var wire 1 z Selector6~3_combout $end
$var wire 1 { Selector6~1_combout $end
$var wire 1 | Selector6~4_combout $end
$var wire 1 } current_state~0_combout $end
$var wire 1 ~ current_state[2]~reg0_q $end
$var wire 1 !! Selector11~0_combout $end
$var wire 1 "! reset_all~0_combout $end
$var wire 1 #! reset_all~reg0_q $end
$var wire 1 $! start_s_i_i~0_combout $end
$var wire 1 %! start_s_i_i~reg0_q $end
$var wire 1 &! Selector10~0_combout $end
$var wire 1 '! start_shuffle~0_combout $end
$var wire 1 (! start_shuffle~reg0_q $end
$var wire 1 )! s_data_read_start~0_combout $end
$var wire 1 *! s_data_read_start~reg0_q $end
$var wire 1 +! Selector0~0_combout $end
$var wire 1 ,! Selector8~0_combout $end
$var wire 1 -! done~0_combout $end
$var wire 1 .! start_decrypt~0_combout $end
$var wire 1 /! start_decrypt~reg0_q $end
$var wire 1 0! done~1_combout $end
$var wire 1 1! done~reg0_q $end
$upscope $end
$upscope $end
$enddefinitions $end
#0
$dumpvars
0!
0"
0#
0$
x%
x&
0'
0(
0)
x*
0+
0,
04
03
02
01
00
0/
0.
0-
05
06
07
08
09
0:
0;
0<
1=
x>
1?
1@
1A
xB
0C
0D
0E
0F
0G
0H
0I
0J
0K
0L
0M
0N
0O
0P
0Q
0R
0S
0T
xU
xV
1W
0X
0Y
0Z
0[
0\
0]
0^
0_
0`
1a
0b
0c
0d
0e
xf
0g
xh
0i
xj
0k
xl
xm
0n
0o
0p
0q
0r
xs
xt
xu
0v
0w
0x
0y
0z
0{
0|
0}
0~
1!!
0"!
0#!
0$!
0%!
0&!
0'!
0(!
0)!
0*!
0+!
0,!
0-!
0.!
0/!
00!
01!
$end
#5000
1!
1S
xv
xn
xM
xJ
x!!
xq
xk
xa
xW
x4
x1
x"!
#10000
0!
0S
#15000
1!
1S
x#!
xD
x6
#20000
1"
0!
1[
0S
x`
x]
x^
xd
#25000
1!
1S
xe
x_
xO
xK
x-!
xr
x3
x/
x$!
#30000
0"
0!
0[
0S
0]
#35000
1!
1S
x%!
xE
x9
#40000
0!
0S
#45000
1!
1S
#50000
0!
0S
#55000
1!
1S
#60000
0!
0S
#65000
1!
1S
#70000
1#
0!
1X
0S
xw
xY
x}
xx
#75000
1!
1S
x~
xy
xN
xL
x&!
x,!
x+!
x2
x0
x0!
x'!
#80000
0#
0!
0X
0S
0w
0Y
#85000
1!
1S
x1!
x(!
xF
xR
x5
x;
#90000
0!
0S
#95000
1!
1S
#100000
0!
0S
#105000
1!
1S
#110000
0!
0S
#115000
1!
1S
#120000
0!
0S
#125000
1!
1S
#130000
0!
0S
#135000
1!
1S
#140000
1+
0!
1Z
0S
xz
xg
x]
xo
#145000
1!
1S
xp
xP
x{
x.
x.!
x)!
#150000
0+
0!
0Z
0S
0z
0g
0]
#155000
1!
1S
x/!
x*!
xH
xI
x8
x7
#160000
0!
0S
#165000
1!
1S
#170000
0!
0S
#175000
1!
1S
#180000
0!
0S
#185000
1!
1S
#190000
1)
0!
1b
0S
x|
xc
#195000
1!
1S
#200000
0)
0!
0b
0S
0|
0c
#205000
1!
1S
#210000
0!
0S
#215000
1!
1S
#220000
0!
0S
#225000
1!
1S
#230000
0!
0S
#235000
1!
1S
#240000
0!
0S
#245000
1!
1S
#250000
1$
0!
1C
0S
#255000
1!
1S
#260000
0$
0!
0C
0S
#265000
1!
1S
#270000
0!
0S
#275000
1!
1S
#280000
0!
0S
#285000
1!
1S
#290000
0!
0S
#295000
1!
1S
#300000
1(
0!
1T
0S
0`
0V
0l
0f
00!
0.!
0)!
0'!
0$!
0"!
0}
0x
1u
0o
0^
0d
1m
#305000
1!
1S
01!
0/!
0*!
0(!
0%!
0#!
0~
0y
1v
0p
1n
0e
0_
0O
0K
1M
0P
1J
0N
0L
0D
0E
0F
0H
0I
0R
0-!
0&!
1!!
0{
0r
1q
1k
0+!
0,!
0a
0W
05
08
07
0;
09
06
02
00
14
0.
11
03
0/
#310000
0(
0!
0T
0S
xV
xl
x"!
xu
xm
#315000
1!
1S
x#!
xv
xn
xM
xJ
xD
x!!
xq
xk
xa
xW
xf
x6
x4
x1
#320000
0!
0S
#325000
1!
1S
#330000
0!
0S
#335000
1!
1S
#340000
1'
0!
1i
0S
1s
1j
#345000
1!
1S
#350000
0'
0!
0i
0S
xs
xj
