rtl/time_machine/simulation/qsim/time_machine.msim.vcd
$comment
	File created using the following command:
		vcd file time_machine.msim.vcd -direction
$end
$date
	Thu Jun 13 11:32:34 2024
$end
$version
	ModelSim Version 10.5b
$end
$timescale
	1ps
$end

$scope module time_machine_vlg_vec_tst $end
$var reg 1 ! CLOCK_50 $end
$var reg 1 " assign_by_index_done $end
$var reg 1 # key_from_switches_available $end
$var reg 1 $ key_from_switches_changed $end
$var reg 1 % reset $end
$var reg 1 & shuffle_mem_finished $end
$var wire 1 ' current_state [7] $end
$var wire 1 ( current_state [6] $end
$var wire 1 ) current_state [5] $end
$var wire 1 * current_state [4] $end
$var wire 1 + current_state [3] $end
$var wire 1 , current_state [2] $end
$var wire 1 - current_state [1] $end
$var wire 1 . current_state [0] $end
$var wire 1 / reset_all $end
$var wire 1 0 start_s_i_i $end
$var wire 1 1 start_shuffle $end

$scope module i1 $end
$var wire 1 2 gnd $end
$var wire 1 3 vcc $end
$var wire 1 4 unknown $end
$var tri1 1 5 devclrn $end
$var tri1 1 6 devpor $end
$var tri1 1 7 devoe $end
$var wire 1 8 reset~input_o $end
$var wire 1 9 reset_all~output_o $end
$var wire 1 : start_shuffle~output_o $end
$var wire 1 ; start_s_i_i~output_o $end
$var wire 1 < current_state[0]~output_o $end
$var wire 1 = current_state[1]~output_o $end
$var wire 1 > current_state[2]~output_o $end
$var wire 1 ? current_state[3]~output_o $end
$var wire 1 @ current_state[4]~output_o $end
$var wire 1 A current_state[5]~output_o $end
$var wire 1 B current_state[6]~output_o $end
$var wire 1 C current_state[7]~output_o $end
$var wire 1 D CLOCK_50~input_o $end
$var wire 1 E key_from_switches_changed~input_o $end
$var wire 1 F shuffle_mem_finished~input_o $end
$var wire 1 G Selector3~0_combout $end
$var wire 1 H assign_by_index_done~input_o $end
$var wire 1 I Selector2~0_combout $end
$var wire 1 J Selector2~1_combout $end
$var wire 1 K next_state[2]~9_combout $end
$var wire 1 L current_state[2]~reg0_q $end
$var wire 1 M Selector3~1_combout $end
$var wire 1 N next_state[1]~8_combout $end
$var wire 1 O current_state[1]~reg0_q $end
$var wire 1 P next_state[4]~4_combout $end
$var wire 1 Q next_state[5]~6_combout $end
$var wire 1 R current_state[5]~reg0_q $end
$var wire 1 S Selector4~0_combout $end
$var wire 1 T next_state[4]~2_combout $end
$var wire 1 U next_state[4]~3_combout $end
$var wire 1 V next_state[4]~5_combout $end
$var wire 1 W current_state[4]~reg0_q $end
$var wire 1 X next_state~0_combout $end
$var wire 1 Y key_from_switches_available~input_o $end
$var wire 1 Z Selector4~1_combout $end
$var wire 1 [ next_state[0]~7_combout $end
$var wire 1 \ current_state[0]~reg0_q $end
$var wire 1 ] next_state[3]~10_combout $end
$var wire 1 ^ next_state[3]~1_combout $end
$var wire 1 _ current_state[3]~reg0_q $end
$upscope $end
$upscope $end
$enddefinitions $end
#0
$dumpvars
0!
0"
0#
0$
x%
0&
0.
0-
0,
0+
0*
0)
0(
0'
0/
00
01
02
13
x4
15
16
17
x8
09
0:
0;
0<
0=
0>
0?
0@
0A
0B
0C
0D
0E
0F
1G
0H
0I
1J
0K
0L
0M
1N
0O
1P
1Q
0R
0S
0T
0U
0V
0W
1X
0Y
0Z
0[
0\
1]
0^
0_
$end
#5000
1!
1D
1R
1O
1=
1;
1A
1Z
1T
1)
10
1-
1[
#10000
0!
0D
#15000
1!
1D
1\
1<
1I
1.
#20000
0!
0D
#25000
1!
1D
#30000
0!
0D
#35000
1!
1D
#40000
0!
0D
#45000
1!
1D
#50000
0!
0D
#55000
1!
1D
#60000
0!
0D
#65000
1!
1D
#70000
0!
0D
#75000
1!
1D
#80000
0!
0D
#85000
1!
1D
#90000
0!
0D
#95000
1!
1D
#100000
0!
0D
#105000
1!
1D
#110000
0!
0D
#115000
1!
1D
#120000
0!
0D
#125000
1!
1D
#130000
0!
0D
#135000
1!
1D
#140000
0!
0D
#145000
1!
1D
#150000
0!
0D
#155000
1!
1D
#160000
0!
0D
#165000
1!
1D
#170000
0!
0D
#175000
1!
1D
#180000
0!
0D
#185000
1!
1D
#190000
1"
0!
1H
0D
0Z
1U
1M
0Q
1K
0N
1V
0[
#195000
1!
1D
0\
1W
0R
0O
1L
1>
0=
0;
0A
1:
1@
0<
0]
0X
1S
0P
0T
0U
0I
0.
1*
11
0)
00
0-
1,
1Q
0Q
1[
#200000
0"
0!
0H
0D
#205000
1!
1D
1\
1<
1I
1.
#210000
0!
0D
#215000
1!
1D
#220000
0!
0D
#225000
1!
1D
#230000
0!
0D
#235000
1!
1D
#240000
0!
0D
#245000
1!
1D
#250000
0!
0D
#255000
1!
1D
#260000
0!
0D
#265000
1!
1D
#270000
0!
0D
#275000
1!
1D
#280000
0!
0D
#285000
1!
1D
#290000
0!
0D
#295000
1!
1D
#300000
0!
0D
#305000
1!
1D
#310000
0!
0D
#315000
1!
1D
#320000
0!
0D
#325000
1!
1D
#330000
0!
0D
#335000
1!
1D
#340000
0!
0D
#345000
1!
1D
#350000
0!
0D
#355000
1!
1D
#360000
0!
0D
#365000
1!
1D
#370000
0!
0D
#375000
1!
1D
#380000
0!
0D
#385000
1!
1D
#390000
0!
0D
#395000
1!
1D
#400000
0!
0D
#405000
1!
1D
#410000
0!
0D
#415000
1!
1D
#420000
0!
0D
#425000
1!
1D
#430000
0!
0D
#435000
1!
1D
#440000
1&
0!
1F
0D
0G
0[
0V
1N
#445000
1!
1D
0\
0W
1O
1=
0:
0@
0<
0S
0M
0J
0I
1G
0.
0*
01
1-
#450000
0&
0!
0F
0D
#455000
1!
1D
#460000
0!
0D
#465000
1!
1D
#470000
0!
0D
#475000
1!
1D
#480000
0!
0D
#485000
1!
1D
#490000
0!
0D
#495000
1!
1D
#500000
0!
0D
#505000
1!
1D
#510000
0!
0D
#515000
1!
1D
#520000
0!
0D
#525000
1!
1D
#530000
0!
0D
#535000
1!
1D
#540000
0!
0D
#545000
1!
1D
#550000
0!
0D
#555000
1!
1D
#560000
0!
0D
#565000
1!
1D
#570000
0!
0D
#575000
1!
1D
#580000
0!
0D
#585000
1!
1D
#590000
0!
0D
#595000
1!
1D
#600000
0!
0D
#605000
1!
1D
#610000
1$
0!
1E
0D
1^
1[
0N
0K
#615000
1!
1D
1_
1\
0O
0L
0>
0=
1<
19
1?
1]
1X
1M
1Z
1J
0G
1+
1/
1.
0-
0,
#620000
0$
0!
0E
0D
#625000
1!
1D
#630000
0!
0D
#635000
1!
1D
#640000
0!
0D
#645000
1!
1D
#650000
0!
0D
#655000
1!
1D
#660000
0!
0D
#665000
1!
1D
#670000
0!
0D
#675000
1!
1D
#680000
0!
0D
#685000
1!
1D
#690000
0!
0D
#695000
1!
1D
#700000
0!
0D
#705000
1!
1D
#710000
1#
0!
1Y
0D
0]
0Z
0[
0^
#715000
1!
1D
0_
0\
0<
09
0?
1G
1P
0M
0+
0/
0.
1N
1Q
#720000
0#
0!
0Y
0D
1]
#725000
1!
1D
1R
1O
1=
1;
1A
1Z
1T
1)
10
1-
1[
#730000
0!
0D
#735000
1!
1D
1\
1<
1I
1.
